versiones_finales/Contador/TSMC_Hamming_16_version3/FLOW/common/rtl/sverilog/waveform.vcd
$date
	Mon May 19 21:08:17 2025
$end

$version
	Synopsys VCS version U-2023.03-SP2_Full64
$end

$timescale
	1ps
$end

$comment Csum: 1 6595e5a54ac14293 $end


$scope module tb_top $end
$var reg 1 ! clk $end
$var reg 1 " reset $end
$var reg 1 # enable $end
$var wire 16 $ counter [15:0] $end

$scope module dut $end
$var reg 1 % clk $end
$var reg 1 & reset $end
$var reg 1 ' enable $end
$var reg 16 ( counter [15:0] $end
$var reg 12 ) parity_stored [11:0] $end
$var reg 1 * busy $end
$var wire 1 + error_detected_data $end
$var reg 12 , syndrome [11:0] $end
$var reg 12 - parity [11:0] $end
$var reg 16 . corrected_counter [15:0] $end
$var reg 12 / corrected_parity [11:0] $end
$var reg 1 0 enable_last $end

$scope module counter_and_parity $end
$var reg 12 1 parity_stored [11:0] $end
$var reg 16 2 count_reg [15:0] $end
$var wire 1 3 clk $end
$var wire 1 4 reset $end
$var wire 1 5 enable $end
$var wire 16 6 corrected_counter [15:0] $end
$var wire 12 7 corrected_parity [11:0] $end
$var reg 16 8 counter [15:0] $end
$var reg 12 9 parity [11:0] $end
$var reg 1 : busy $end
$var reg 1 ; error_detected_data $end
$var reg 1 < enable_last $end
$var reg 16 = count_neg [15:0] $end
$var reg 16 > counter_stored [15:0] $end
$var reg 1 ? reset_last $end
$var reg 1 @ reset_done $end
$var integer 32 A i $end
$upscope $end


$scope module syndrome_inst $end
$var wire 1 B clk $end
$var wire 1 C enable $end
$var wire 12 D parity [11:0] $end
$var wire 12 E parity_stored [11:0] $end
$var wire 16 F counter_reg [15:0] $end
$var reg 12 G syndrome [11:0] $end
$var wire 1 H busy $end
$var reg 16 I corrected_counter [15:0] $end
$var reg 1 J error_detected_parity $end
$var wire 1 + error_detected_data $end
$var reg 12 K corrected_parity [11:0] $end
$var wire 1 L enable_last $end
$var wire 1 M reset $end
$var integer 32 N i $end

$scope begin unnamed$$_0 $end
$upscope $end


$scope begin unnamed$$_1 $end
$upscope $end

$upscope $end

$upscope $end

$upscope $end

$enddefinitions $end

#0
$dumpvars
0*
0!
0:
05
0<
0;
14
0'
1&
0#
00
0+
0J
1"
0@
x?
0H
0C
0L
1M
b000000000000 1
b0000000000000000 2
b0000000000000000 .
b000000000000 /
b0000000000000000 =
b0000000000000000 $
b0000000000000000 6
b000000000000 7
b0000000000000000 8
b000000000000 9
b0000000000000000 F
b0000000000000000 >
b0000000000000000 (
bxxxxxxxxxxxxxxxxxxxxxxxxxxxxxxxx A
b000000000000 -
b000000000000 )
b000000000000 ,
b0000000000000000 I
b000000000000 K
b00000000000000000000000000000100 N
b000000000000 D
b000000000000 E
b000000000000 G
03
0B
0%
$end
#5000
1!
1%
13
1B
0"
0&
0M
04
1#
1'
1C
15
#10000
0!
0%
03
0B
#15000
1!
1%
13
1B
1@
b0000000000000001 2
b0000000000000001 8
b0000000000000001 (
b0000000000000001 $
b0000000000000001 F
b000000000111 G
b000000000111 ,
1J
#20000
0!
0%
03
0B
b0000000000000001 =
#25000
1!
1%
13
1B
1<
10
1L
b0000000000000010 2
b0000000000000010 8
b0000000000000010 (
b0000000000000010 $
b0000000000000010 F
#30000
0!
0%
03
0B
b0000000000000010 =
#35000
1!
1%
13
1B
b0000000000000011 2
b0000000000000011 8
b0000000000000011 (
b0000000000000011 $
b0000000000000011 F
#40000
0!
0%
03
0B
b0000000000000011 =
#45000
1!
1%
13
1B
b0000000000000100 2
b0000000000000100 8
b0000000000000100 (
b0000000000000100 $
b0000000000000100 F
#50000
0!
0%
03
0B
b0000000000000100 =
#55000
1!
1%
13
1B
b0000000000000101 2
b0000000000000101 8
b0000000000000101 (
b0000000000000101 $
b0000000000000101 F
#60000
0!
0%
03
0B
b0000000000000101 =
#65000
1!
1%
13
1B
b0000000000000110 2
b0000000000000110 8
b0000000000000110 (
b0000000000000110 $
b0000000000000110 F
#70000
0!
0%
03
0B
b0000000000000110 =
#75000
1!
1%
13
1B
b0000000000000111 2
b0000000000000111 8
b0000000000000111 (
b0000000000000111 $
b0000000000000111 F
#80000
0!
0%
03
0B
b0000000000000111 =
#85000
1!
1%
13
1B
b0000000000001000 2
b0000000000001000 8
b0000000000001000 (
b0000000000001000 $
b0000000000001000 F
#90000
0!
0%
03
0B
b0000000000001000 =
#95000
1!
1%
13
1B
b0000000000001001 2
b0000000000001001 8
b0000000000001001 (
b0000000000001001 $
b0000000000001001 F
#100000
0!
0%
03
0B
b0000000000001001 =
#105000
1!
1%
13
1B
b0000000000001010 2
b0000000000001010 8
b0000000000001010 (
b0000000000001010 $
b0000000000001010 F
#110000
0!
0%
03
0B
b0000000000001010 =
#115000
1!
1%
13
1B
b0000000000001011 2
b0000000000001011 8
b0000000000001011 (
b0000000000001011 $
b0000000000001011 F
#120000
0!
0%
03
0B
b0000000000001011 =
#125000
1!
1%
13
1B
b0000000000001100 2
b0000000000001100 8
b0000000000001100 (
b0000000000001100 $
b0000000000001100 F
#130000
0!
0%
03
0B
b0000000000001100 =
#135000
1!
1%
13
1B
b0000000000001101 2
b0000000000001101 8
b0000000000001101 (
b0000000000001101 $
b0000000000001101 F
#140000
0!
0%
03
0B
b0000000000001101 =
#145000
1!
1%
13
1B
b0000000000001110 2
b0000000000001110 8
b0000000000001110 (
b0000000000001110 $
b0000000000001110 F
#150000
0!
0%
03
0B
b0000000000001110 =
#155000
1!
1%
13
1B
b0000000000001111 2
b0000000000001111 8
b0000000000001111 (
b0000000000001111 $
b0000000000001111 F
#160000
0!
0%
03
0B
b0000000000001111 =
#165000
1!
1%
13
1B
b0000000000010000 2
b0000000000010000 8
b0000000000010000 (
b0000000000010000 $
b0000000000010000 F
#170000
0!
0%
03
0B
b0000000000010000 =
#175000
1!
1%
13
1B
b0000000000010001 2
b0000000000010001 8
b0000000000010001 (
b0000000000010001 $
b0000000000010001 F
#180000
0!
0%
03
0B
b0000000000010001 =
#185000
1!
1%
13
1B
b0000000000010010 2
b0000000000010010 8
b0000000000010010 (
b0000000000010010 $
b0000000000010010 F
#190000
0!
0%
03
0B
b0000000000010010 =
#195000
1!
1%
13
1B
b0000000000010011 2
b0000000000010011 8
b0000000000010011 (
b0000000000010011 $
b0000000000010011 F
#200000
0!
0%
03
0B
b0000000000010011 =
#205000
1!
1%
13
1B
b0000000000010100 2
b0000000000010100 8
b0000000000010100 (
b0000000000010100 $
b0000000000010100 F
#210000
0!
0%
03
0B
b0000000000010100 =
#215000
1!
1%
13
1B
b0000000000010101 2
b0000000000010101 8
b0000000000010101 (
b0000000000010101 $
b0000000000010101 F
#220000
0!
0%
03
0B
b0000000000010101 =
#225000
1!
1%
13
1B
b0000000000010110 2
b0000000000010110 8
b0000000000010110 (
b0000000000010110 $
b0000000000010110 F
#230000
0!
0%
03
0B
b0000000000010110 =
#235000
1!
1%
13
1B
b0000000000010111 2
b0000000000010111 8
b0000000000010111 (
b0000000000010111 $
b0000000000010111 F
#240000
0!
0%
03
0B
b0000000000010111 =
#245000
1!
1%
13
1B
b0000000000011000 2
b0000000000011000 8
b0000000000011000 (
b0000000000011000 $
b0000000000011000 F
#250000
0!
0%
03
0B
b0000000000011000 =
#255000
1!
1%
13
1B
b0000000000011001 2
b0000000000011001 8
b0000000000011001 (
b0000000000011001 $
b0000000000011001 F
#260000
0!
0%
03
0B
b0000000000011001 =
#265000
1!
1%
13
1B
b0000000000011010 2
b0000000000011010 8
b0000000000011010 (
b0000000000011010 $
b0000000000011010 F
#270000
0!
0%
03
0B
b0000000000011010 =
#275000
1!
1%
13
1B
b0000000000011011 2
b0000000000011011 8
b0000000000011011 (
b0000000000011011 $
b0000000000011011 F
#280000
0!
0%
03
0B
b0000000000011011 =
#285000
1!
1%
13
1B
b0000000000011100 2
b0000000000011100 8
b0000000000011100 (
b0000000000011100 $
b0000000000011100 F
#290000
0!
0%
03
0B
b0000000000011100 =
#295000
1!
1%
13
1B
b0000000000011101 2
b0000000000011101 8
b0000000000011101 (
b0000000000011101 $
b0000000000011101 F
#300000
0!
0%
03
0B
b0000000000011101 =
#305000
1!
1%
13
1B
0#
0'
0C
05
b0000000000011110 2
b0000000000011110 8
b0000000000011110 (
b0000000000011110 $
b0000000000011110 F
#310000
0!
0%
03
0B
b0000000000011110 =
#315000
1!
1%
13
1B
b00000000000000000000000000000100 A
0<
00
0L
b0000000000011110 >
b000000111000 1
b000000111000 )
b000000111000 E
1:
1*
1H
b000000000000 G
b000000000000 ,
0J
#320000
0!
0%
03
0B
#325000
1!
1%
13
1B
#330000
0!
0%
03
0B
#335000
1!
1%
13
1B
b000000101000 1
b000000101000 )
b000000101000 E
b1000000100011010 2
b000000010000 G
b000000010000 ,
1J
1;
1+
b1000000100011010 8
b1000000100011010 (
b1000000100011010 $
b1000000100011010 F
b011111010101 G
b011111010101 ,
#340000
0!
0%
03
0B
b1000000100011010 =
#345000
1!
1%
13
1B
b0000000000011110 I
b0000000000011110 .
b0000000000011110 6
b000000111000 K
b000000111000 /
b000000111000 7
#350000
0!
0%
03
0B
#355000
1!
1%
13
1B
b000000111000 1
b000000111000 )
b000000111000 E
b0000000000011110 2
0:
0*
0H
b011111000101 G
b011111000101 ,
0;
0+
b0000000000011110 8
b0000000000011110 (
b0000000000011110 $
b0000000000011110 F
b000000000000 G
b000000000000 ,
0J
#360000
0!
0%
03
0B
b0000000000011110 =
#365000
1!
1%
13
1B
1#
1'
1C
15
b0000000000000000 I
b0000000000000000 .
b0000000000000000 6
#370000
0!
0%
03
0B
#375000
1!
1%
13
1B
1<
10
1L
b0000000000011111 2
b0000000000011111 8
b0000000000011111 (
b0000000000011111 $
b0000000000011111 F
#380000
0!
0%
03
0B
b0000000000011111 =
#385000
1!
1%
13
1B
b0000000000100000 2
b0000000000100000 8
b0000000000100000 (
b0000000000100000 $
b0000000000100000 F
#390000
0!
0%
03
0B
b0000000000100000 =
#395000
1!
1%
13
1B
b0000000000100001 2
b0000000000100001 8
b0000000000100001 (
b0000000000100001 $
b0000000000100001 F
#400000
0!
0%
03
0B
b0000000000100001 =
#405000
1!
1%
13
1B
b0000000000100010 2
b0000000000100010 8
b0000000000100010 (
b0000000000100010 $
b0000000000100010 F
#410000
0!
0%
03
0B
b0000000000100010 =
