versiones_finales/Registro/TSMC_Hamming_4/FLOW/fc_flow/results/waveforms.vcd
$date
	Sat May 17 17:59:33 2025
$end

$version
	Synopsys VCS version U-2023.03-SP2_Full64
$end

$timescale
	1ps
$end

$comment Csum: 1 6a45098a9f4ab154 $end


$scope module universal_register_8bit_tb $end
$var reg 1 ! clk $end
$var reg 1 " rst $end
$var reg 1 # enable $end
$var reg 2 $ mode [1:0] $end
$var reg 1 % load $end
$var reg 1 & serial_in $end
$var reg 4 ' parallel_in [3:0] $end
$var reg 1 ( serial_out $end
$var reg 4 ) parallel_out [3:0] $end

$scope module dut $end
$var wire 1 * clk $end
$var wire 1 + rst $end
$var wire 1 , enable $end
$var wire 2 - mode [1:0] $end
$var wire 1 . load $end
$var wire 1 / serial_in $end
$var wire 4 0 parallel_in [3:0] $end
$var wire 1 1 serial_out $end
$var wire 4 2 parallel_out [3:0] $end
$var wire 4 3 reg_data [3:0] $end
$var wire 1 4 ctmn_193 $end
$var wire 1 5 ctmn_158 $end
$var wire 1 6 ctmn_150 $end
$var wire 1 7 ctmn_154 $end
$var wire 1 8 ctmn_157 $end
$var wire 1 9 p3 $end
$var wire 1 : ctmn_149 $end
$var wire 1 ; N14 $end
$var wire 1 < clk_clock_gate_reg_data_reg $end
$var wire 1 = p2 $end
$var wire 1 > ctmn_153 $end
$var wire 1 ? N12 $end
$var wire 1 @ ctmn_194 $end
$var wire 1 A N8 $end
$var wire 1 B ctmn_172 $end
$var wire 1 C ctmn_180 $end
$var wire 1 D N13 $end
$var wire 1 E p1 $end
$var wire 1 F ctmn_178 $end
$var wire 1 G N9 $end
$var wire 1 H N10 $end
$var wire 1 I ctmn_155 $end
$var wire 1 J N11 $end
$var wire 1 K ctmn_151 $end
$var wire 1 L ctmn_159 $end
$var wire 1 M ctmn_185 $end
$var wire 1 N ctmn_186 $end
$var wire 1 O ctmn_187 $end
$var wire 1 P ctmn_189 $end
$var wire 1 Q ctmn_170 $end
$var wire 1 R ctmn_190 $end
$var wire 1 S ctmn_192 $end
$var wire 1 T ctmn_160 $end
$var wire 1 U ctmn_171 $end
$var wire 1 V N7 $end
$var wire 1 W ctmn_173 $end
$var wire 1 X ctmn_181 $end
$var wire 1 Y ctmn_182 $end
$var wire 1 Z ctmn_183 $end
$var wire 1 [ ctmn_162 $end
$var wire 1 \ ctmn_184 $end
$var wire 1 ] ctmn_191 $end
$var wire 1 ^ ctmn_156 $end
$var wire 1 _ ctmn_167 $end
$var wire 1 ` ctmn_163 $end
$var wire 1 a ctmn_166 $end
$var wire 1 b ctmn_169 $end
$var wire 1 c ctmn_188 $end
$var wire 1 d ctmn_168 $end
$var wire 1 e ctmn_164 $end
$var wire 1 f ctmn_177 $end
$var wire 1 g ctmn_174 $end
$var wire 1 h ctmn_175 $end
$var wire 1 i ctmn_176 $end
$var wire 1 j ctmn_152 $end
$var wire 1 k ctmn_161 $end
$var wire 1 l ctmn_165 $end
$var wire 1 m ctmn_179 $end

$scope module ctmi_205 $end
$var wire 1 n A1 $end
$var wire 1 4 A2 $end
$var wire 1 n B1 $end
$var wire 1 4 B2 $end
$var wire 1 o ZN $end
$var wire 1 p A $end
$var wire 1 q B $end
$upscope $end


$scope module ctmi_154 $end
$var wire 1 r A1 $end
$var wire 1 5 A2 $end
$var wire 1 s B1 $end
$var wire 1 5 B2 $end
$var wire 1 t ZN $end
$var wire 1 u A $end
$var wire 1 v B $end
$upscope $end


$scope module ctmi_155 $end
$var wire 1 6 A1 $end
$var wire 1 7 A2 $end
$var wire 1 8 A3 $end
$var wire 1 w ZN $end
$upscope $end


$scope module ctmi_156 $end
$var wire 1 9 A1 $end
$var wire 1 x A2 $end
$var wire 1 y A3 $end
$var wire 1 : A4 $end
$var wire 1 z ZN $end
$upscope $end


$scope module p2_reg $end
$var wire 1 { SI $end
$var wire 1 ; D $end
$var wire 1 | SE $end
$var wire 1 < CP $end
$var wire 1 + CDN $end
$var wire 1 } Q $end
$var reg 1 ~ notifier $end
$var wire 1 "! CDN_i $end
$var wire 1 "" SDN $end
$var wire 1 "# D_i $end
$var wire 1 "$ Q_buf $end
$var wire 1 "% SD $end
$var wire 1 "& SI_check $end
$var wire 1 "' D_check $end
$var wire 1 "( SE1 $end
$var wire 1 ") SE_check $end
$var wire 1 "* xSI_check $end
$var wire 1 "+ xD_check $end
$var wire 1 ", xCDN_i $end
$upscope $end


$scope module ctmi_206 $end
$var wire 1 8 A1 $end
$var wire 1 > A2 $end
$var wire 1 6 A3 $end
$var wire 1 "- ZN $end
$upscope $end


$scope module reg_data_reg[0]  $end
$var wire 1 ". SI $end
$var wire 1 ? D $end
$var wire 1 "/ SE $end
$var wire 1 < CP $end
$var wire 1 + CDN $end
$var wire 1 "0 Q $end
$var wire 1 "1 QN $end
$var reg 1 "2 notifier $end
$var wire 1 "3 CDN_i $end
$var wire 1 "4 SDN $end
$var wire 1 "5 D_i $end
$var wire 1 "6 Q_buf $end
$var wire 1 "7 SD $end
$var wire 1 "8 SI_check $end
$var wire 1 "9 D_check $end
$var wire 1 ": xSI_check $end
$var wire 1 "; xD_check $end
$var wire 1 "< xCDN_i $end
$upscope $end


$scope module ctmi_207 $end
$var wire 1 @ A1 $end
$var wire 1 : A2 $end
$var wire 1 @ B1 $end
$var wire 1 : B2 $end
$var wire 1 "= ZN $end
$var wire 1 "> A $end
$var wire 1 "? B $end
$upscope $end


$scope module p3_reg $end
$var wire 1 "@ SI $end
$var wire 1 A D $end
$var wire 1 "A SE $end
$var wire 1 < CP $end
$var wire 1 + CDN $end
$var wire 1 "B Q $end
$var reg 1 "C notifier $end
$var wire 1 "D CDN_i $end
$var wire 1 "E SDN $end
$var wire 1 "F D_i $end
$var wire 1 "G Q_buf $end
$var wire 1 "H SD $end
$var wire 1 "I SI_check $end
$var wire 1 "J D_check $end
$var wire 1 "K SE1 $end
$var wire 1 "L SE_check $end
$var wire 1 "M xSI_check $end
$var wire 1 "N xD_check $end
$var wire 1 "O xCDN_i $end
$upscope $end


$scope module ctmi_210 $end
$var wire 1 B A1 $end
$var wire 1 C A2 $end
$var wire 1 B B1 $end
$var wire 1 "= B2 $end
$var wire 1 ? ZN $end
$var wire 1 "P A $end
$var wire 1 "Q B $end
$upscope $end


$scope module p1_reg $end
$var wire 1 "R SI $end
$var wire 1 D D $end
$var wire 1 "S SE $end
$var wire 1 < CP $end
$var wire 1 + CDN $end
$var wire 1 "T Q $end
$var reg 1 "U notifier $end
$var wire 1 "V CDN_i $end
$var wire 1 "W SDN $end
$var wire 1 "X D_i $end
$var wire 1 "Y Q_buf $end
$var wire 1 "Z SD $end
$var wire 1 "[ SI_check $end
$var wire 1 "\ D_check $end
$var wire 1 "] SE1 $end
$var wire 1 "^ SE_check $end
$var wire 1 "_ xSI_check $end
$var wire 1 "` xD_check $end
$var wire 1 "a xCDN_i $end
$upscope $end


$scope module ctmi_204 $end
$var wire 1 B A1 $end
$var wire 1 F A2 $end
$var wire 1 B B1 $end
$var wire 1 "b B2 $end
$var wire 1 G ZN $end
$var wire 1 "c A $end
$var wire 1 "d B $end
$upscope $end


$scope module reg_data_reg[2]  $end
$var wire 1 "e SI $end
$var wire 1 H D $end
$var wire 1 "f SE $end
$var wire 1 < CP $end
$var wire 1 + CDN $end
$var wire 1 "g Q $end
$var wire 1 "h QN $end
$var reg 1 "i notifier $end
$var wire 1 "j CDN_i $end
$var wire 1 "k SDN $end
$var wire 1 "l D_i $end
$var wire 1 "m Q_buf $end
$var wire 1 "n SD $end
$var wire 1 "o SI_check $end
$var wire 1 "p D_check $end
$var wire 1 "q xSI_check $end
$var wire 1 "r xD_check $end
$var wire 1 "s xCDN_i $end
$upscope $end


$scope module reg_data_reg[1]  $end
$var wire 1 "t SI $end
$var wire 1 J D $end
$var wire 1 "u SE $end
$var wire 1 < CP $end
$var wire 1 + CDN $end
$var wire 1 "v Q $end
$var wire 1 "w QN $end
$var reg 1 "x notifier $end
$var wire 1 "y CDN_i $end
$var wire 1 "z SDN $end
$var wire 1 "{ D_i $end
$var wire 1 "| Q_buf $end
$var wire 1 "} SD $end
$var wire 1 "~ SI_check $end
$var wire 1 #! D_check $end
$var wire 1 #" xSI_check $end
$var wire 1 ## xD_check $end
$var wire 1 #$ xCDN_i $end
$upscope $end


$scope module ctmi_208 $end
$var wire 1 L A1 $end
$var wire 1 7 A2 $end
$var wire 1 @ ZN $end
$upscope $end


$scope module ctmi_209 $end
$var wire 1 , A1 $end
$var wire 1 M A2 $end
$var wire 1 B B1 $end
$var wire 1 #% B2 $end
$var wire 1 #& Z $end
$var wire 1 #' A $end
$var wire 1 #( B $end
$upscope $end


$scope module ctmi_193 $end
$var wire 1 N I0 $end
$var wire 1 O I1 $end
$var wire 1 P I2 $end
$var wire 1 F S0 $end
$var wire 1 B S1 $end
$var wire 1 #) ZN $end
$var wire 1 #* I0_out $end
$var wire 1 #+ I1_out $end
$upscope $end


$scope module ctmi_200 $end
$var wire 1 O A1 $end
$var wire 1 Q A2 $end
$var wire 1 N B1 $end
$var wire 1 R B2 $end
$var wire 1 , C1 $end
$var wire 1 S C2 $end
$var wire 1 A ZN $end
$var wire 1 #, A $end
$var wire 1 #- B $end
$var wire 1 #. C $end
$upscope $end


$scope module ctmi_164 $end
$var wire 1 T A1 $end
$var wire 1 I A2 $end
$var wire 1 T B1 $end
$var wire 1 I B2 $end
$var wire 1 #/ ZN $end
$var wire 1 #0 A $end
$var wire 1 #1 B $end
$upscope $end


$scope module ctmi_167 $end
$var wire 1 , A1 $end
$var wire 1 #2 A2 $end
$var wire 1 Q B $end
$var wire 1 #3 Z $end
$var wire 1 #4 A $end
$upscope $end


$scope module ctmi_178 $end
$var wire 1 U A1 $end
$var wire 1 8 A2 $end
$var wire 1 B A3 $end
$var wire 1 #5 ZN $end
$upscope $end


$scope module ctmi_179 $end
$var wire 1 > A1 $end
$var wire 1 6 A2 $end
$var wire 1 U ZN $end
$upscope $end


$scope module ctmi_181 $end
$var wire 1 W A1 $end
$var wire 1 B A2 $end
$var wire 1 X B1 $end
$var wire 1 Y B2 $end
$var wire 1 Z C $end
$var wire 1 #6 ZN $end
$var wire 1 #7 A $end
$var wire 1 #8 B $end
$upscope $end


$scope module ctmi_201 $end
$var wire 1 Y I $end
$var wire 1 #9 ZN $end
$upscope $end


$scope module ctmi_194 $end
$var wire 1 C A1 $end
$var wire 1 M A2 $end
$var wire 1 C B1 $end
$var wire 1 M B2 $end
$var wire 1 N ZN $end
$var wire 1 #: A $end
$var wire 1 #; B $end
$upscope $end


$scope module ctmi_195 $end
$var wire 1 #< A1 $end
$var wire 1 [ A2 $end
$var wire 1 K A3 $end
$var wire 1 \ B $end
$var wire 1 #= ZN $end
$var wire 1 #> A $end
$upscope $end


$scope module ctmi_202 $end
$var wire 1 9 A1 $end
$var wire 1 ] A2 $end
$var wire 1 9 B1 $end
$var wire 1 ] B2 $end
$var wire 1 S ZN $end
$var wire 1 #? A $end
$var wire 1 #@ B $end
$upscope $end


$scope module ctmi_182 $end
$var wire 1 E A1 $end
$var wire 1 U A2 $end
$var wire 1 E B1 $end
$var wire 1 U B2 $end
$var wire 1 W ZN $end
$var wire 1 #A A $end
$var wire 1 #B B $end
$upscope $end


$scope module ctmi_183 $end
$var wire 1 F A1 $end
$var wire 1 C A2 $end
$var wire 1 F B1 $end
$var wire 1 C B2 $end
$var wire 1 #C ZN $end
$var wire 1 #D A $end
$var wire 1 #E B $end
$upscope $end


$scope module ctmi_203 $end
$var wire 1 > A1 $end
$var wire 1 ^ A2 $end
$var wire 1 ] ZN $end
$upscope $end


$scope module ctmi_196 $end
$var wire 1 _ A1 $end
$var wire 1 #F A2 $end
$var wire 1 #G B1 $end
$var wire 1 ` B2 $end
$var wire 1 a C1 $end
$var wire 1 #H C2 $end
$var wire 1 \ ZN $end
$var wire 1 #I A $end
$var wire 1 #J B $end
$var wire 1 #K C $end
$upscope $end


$scope module ctmi_197 $end
$var wire 1 N I $end
$var wire 1 #L ZN $end
$upscope $end


$scope module ctmi_165 $end
$var wire 1 > A1 $end
$var wire 1 L A2 $end
$var wire 1 T ZN $end
$upscope $end


$scope module ctmi_168 $end
$var wire 1 , A1 $end
$var wire 1 b A2 $end
$var wire 1 #M ZN $end
$upscope $end


$scope module ctmi_198 $end
$var wire 1 = A1 $end
$var wire 1 c A2 $end
$var wire 1 = B1 $end
$var wire 1 c B2 $end
$var wire 1 P ZN $end
$var wire 1 #N A $end
$var wire 1 #O B $end
$upscope $end


$scope module ctmi_166 $end
$var wire 1 ^ A1 $end
$var wire 1 6 A2 $end
$var wire 1 #P ZN $end
$upscope $end


$scope module ctmi_169 $end
$var wire 1 I A1 $end
$var wire 1 #Q A2 $end
$var wire 1 [ A3 $end
$var wire 1 d B $end
$var wire 1 #R Z $end
$var wire 1 #S A $end
$upscope $end


$scope module ctmi_184 $end
$var wire 1 e A1 $end
$var wire 1 #T A2 $end
$var wire 1 f B $end
$var wire 1 #U ZN $end
$var wire 1 #V A $end
$upscope $end


$scope module ctmi_185 $end
$var wire 1 g A1 $end
$var wire 1 h A2 $end
$var wire 1 _ B1 $end
$var wire 1 I B2 $end
$var wire 1 i C1 $end
$var wire 1 #W C2 $end
$var wire 1 f ZN $end
$var wire 1 #X A $end
$var wire 1 #Y B $end
$var wire 1 #Z C $end
$upscope $end


$scope module ctmi_152 $end
$var wire 1 #W A1 $end
$var wire 1 : A2 $end
$var wire 1 #W B1 $end
$var wire 1 #[ B2 $end
$var wire 1 1 ZN $end
$var wire 1 #\ A $end
$var wire 1 #] B $end
$upscope $end


$scope module ctmi_157 $end
$var wire 1 K A1 $end
$var wire 1 = A2 $end
$var wire 1 j A3 $end
$var wire 1 > ZN $end
$upscope $end


$scope module ctmi_159 $end
$var wire 1 #[ A1 $end
$var wire 1 : A2 $end
$var wire 1 #[ B1 $end
$var wire 1 : B2 $end
$var wire 1 j ZN $end
$var wire 1 #^ A $end
$var wire 1 #_ B $end
$upscope $end


$scope module ctmi_160 $end
$var wire 1 > I $end
$var wire 1 #` ZN $end
$upscope $end


$scope module ctmi_161 $end
$var wire 1 I A1 $end
$var wire 1 E A2 $end
$var wire 1 j A3 $end
$var wire 1 ^ ZN $end
$upscope $end


$scope module ctmi_163 $end
$var wire 1 ^ I $end
$var wire 1 #a ZN $end
$upscope $end


$scope module ctmi_170 $end
$var wire 1 k A1 $end
$var wire 1 . A2 $end
$var wire 1 [ ZN $end
$upscope $end


$scope module ctmi_171 $end
$var wire 1 #b I $end
$var wire 1 #c ZN $end
$upscope $end


$scope module ctmi_172 $end
$var wire 1 a A1 $end
$var wire 1 #[ A2 $end
$var wire 1 n B1 $end
$var wire 1 _ B2 $end
$var wire 1 ` C1 $end
$var wire 1 #d C2 $end
$var wire 1 d ZN $end
$var wire 1 #e A $end
$var wire 1 #f B $end
$var wire 1 #g C $end
$upscope $end


$scope module ctmi_173 $end
$var wire 1 #W A1 $end
$var wire 1 e A2 $end
$var wire 1 l ZN $end
$upscope $end


$scope module ctmi_174 $end
$var wire 1 #h A1 $end
$var wire 1 . A2 $end
$var wire 1 #i ZN $end
$upscope $end


$scope module ctmi_175 $end
$var wire 1 ` I $end
$var wire 1 #j ZN $end
$upscope $end


$scope module ctmi_176 $end
$var wire 1 l I $end
$var wire 1 #k ZN $end
$upscope $end


$scope module ctmi_177 $end
$var wire 1 #l A1 $end
$var wire 1 k A2 $end
$var wire 1 #m ZN $end
$upscope $end


$scope module ctmi_180 $end
$var wire 1 , I $end
$var wire 1 #n ZN $end
$upscope $end


$scope module ctmi_186 $end
$var wire 1 #o A1 $end
$var wire 1 #p A2 $end
$var wire 1 #q ZN $end
$upscope $end


$scope module ctmi_187 $end
$var wire 1 [ I $end
$var wire 1 #r ZN $end
$upscope $end


$scope module ctmi_188 $end
$var wire 1 / A1 $end
$var wire 1 k A2 $end
$var wire 1 #s ZN $end
$upscope $end


$scope module ctmi_189 $end
$var wire 1 m A1 $end
$var wire 1 #t A2 $end
$var wire 1 #u B1 $end
$var wire 1 l B2 $end
$var wire 1 e C1 $end
$var wire 1 #v C2 $end
$var wire 1 #w ZN $end
$var wire 1 #x A $end
$var wire 1 #y B $end
$var wire 1 #z C $end
$upscope $end


$scope module ctmi_190 $end
$var wire 1 / A1 $end
$var wire 1 k A2 $end
$var wire 1 #{ B1 $end
$var wire 1 [ B2 $end
$var wire 1 #| Z $end
$var wire 1 #} A $end
$var wire 1 #~ B $end
$upscope $end


$scope module ctmi_191 $end
$var wire 1 B A1 $end
$var wire 1 b A2 $end
$var wire 1 Y ZN $end
$upscope $end


$scope module ctmi_192 $end
$var wire 1 Q A1 $end
$var wire 1 X A2 $end
$var wire 1 Z ZN $end
$upscope $end


$scope module ctmi_199 $end
$var wire 1 ^ A1 $end
$var wire 1 6 A2 $end
$var wire 1 c ZN $end
$upscope $end


$scope module reg_data_reg[3]  $end
$var wire 1 $! SI $end
$var wire 1 G D $end
$var wire 1 $" SE $end
$var wire 1 < CP $end
$var wire 1 + CDN $end
$var wire 1 $# Q $end
$var reg 1 $$ notifier $end
$var wire 1 $% CDN_i $end
$var wire 1 $& SDN $end
$var wire 1 $' D_i $end
$var wire 1 $( Q_buf $end
$var wire 1 $) SD $end
$var wire 1 $* SI_check $end
$var wire 1 $+ D_check $end
$var wire 1 $, SE1 $end
$var wire 1 $- SE_check $end
$var wire 1 $. xSI_check $end
$var wire 1 $/ xD_check $end
$var wire 1 $0 xCDN_i $end
$upscope $end


$scope module clock_gate_reg_data_reg $end
$var wire 1 $1 TE $end
$var wire 1 V E $end
$var wire 1 * CP $end
$var wire 1 $2 Q $end
$var reg 1 $3 notifier $end
$var wire 1 $4 CDN $end
$var wire 1 $5 SDN $end
$var wire 1 $6 D_i $end
$var wire 1 $7 CPB $end
$var wire 1 $8 Q_buf $end
$var wire 1 $9 E_bar_b $end
$var wire 1 $: TE_bar_b $end
$var wire 1 $; E_bar $end
$var wire 1 $< TE_bar $end
$upscope $end

$upscope $end

$upscope $end

$enddefinitions $end

#0
$dumpvars
0u
0#h
0#p
0y
1v
0s
0#%
0#z
0#v
1$4
0"!
0"'
1"#
1$;
1$9
1#*
0#+
0H
0J
1D
1;
0V
0"$
1"%
1""
0|
1"(
0")
0{
0"&
0$1
1$<
1$:
0#&
0!
0$6
1$5
x$3
0r
0t
0w
0x
0#4
0#2
0#3
0#S
0#Q
0#l
0#5
0#7
0#8
1#6
1#D
0#E
0#V
0#T
0#o
0#x
0#t
0#y
0#u
0#}
0#~
0#{
0#|
1#)
0#>
0#<
0#'
0#(
05
0m
0+
0/
0#
0%
x~
0"V
0"\
1"X
0"Y
1"Z
1"W
0"S
1"]
0"^
0"R
0"[
x"U
0"a
0"`
0"_
0"D
0"J
1"F
0"G
1"H
1"E
0"A
1"K
0"L
0"@
0"I
x"C
0"O
0"N
0"M
0"3
0"9
0"5
0"0
0"6
1"7
1"4
0"/
0".
0"8
x"2
0"<
0";
0":
0"y
0#!
0"{
0"v
0"|
1"}
1"z
0"u
0"t
0"~
x"x
0#$
0##
0#"
0"j
0"p
0"l
0"g
0"m
1"n
1"k
0"f
0"e
0"o
x"i
0"s
0"r
0"q
0$%
0$+
0$'
0$#
0$(
1$)
1$&
0$"
0$,
0$-
0$!
0$*
x$$
0$0
0$/
0$.
0"
0&
0(
0",
0"+
0"*
b00 $
b0000 '
b0000 )
1p
1q
1">
1"?
1"P
1"Q
1"c
1"d
1#,
1#-
0#.
1#0
1#1
1#:
1#;
1#?
1#@
1#A
1#B
1#I
1#J
0#K
1#N
1#O
1#X
1#Y
1#Z
1#\
1#]
1#^
1#_
0#e
1#f
1#g
b0000 2
0#W
0#G
0#d
1#9
1R
1#L
1O
1#`
17
1#a
18
1#c
1k
0#j
0e
0#k
0a
1#n
1B
1#r
1h
1$7
0}
0=
0"B
09
0"T
0E
1"1
1:
1"h
1I
1"w
1K
1#M
1Q
1#P
1L
1#i
1`
1#m
1_
1#q
1g
1#s
1i
0#C
0X
1"-
14
0z
06
0#=
0M
1#R
1b
1#U
1F
1#w
1C
0$2
0<
0@
1A
1U
1]
1\
0T
0f
0>
0^
0[
1d
1l
0Y
0Z
1c
0#b
0$8
b0000 3
b0000 0
b00 -
0?
0G
0N
0,
0S
0W
0P
01
0j
0.
0*
0n
0o
0"b
0#/
0#F
0#H
0#[
0"=
$end
#5000
1!
1*
0$7
1"
1+
1"y
1#!
1##
1#$
1"j
1"p
1"r
1"s
1"3
1"9
1";
1"<
1$%
1$+
1$/
1$0
1"V
1"\
1"`
1"a
1"D
1"J
1"N
1"O
1"!
1"'
1"+
1",
1"^
1"L
1")
1#
1,
1#4
1#.
1&
1/
1#}
0#s
0i
0#Z
1#|
1m
0A
0"F
0"K
0#M
0Q
1#3
1H
1"l
0#n
0B
0"L
1#+
0#)
0;
0"#
0"(
1#5
1V
0$9
0$;
1$6
1Z
0#3
0H
0"l
1f
0")
0#U
0F
0#*
0#D
0"c
0#6
0D
0"X
0"]
0#+
0"^
1#)
1;
1"#
1"(
1G
1$'
1$,
1#C
1X
1")
1$-
0Z
1#6
1D
1"X
1"]
1"^
#10000
0!
0*
1$7
1$8
#15000
1!
1*
0$7
1$2
1<
1"$
1"Y
1$(
1$#
1#[
1s
0v
1r
1#o
0#_
1#e
1"T
1E
0#B
1}
1=
0#O
b1000 3
1>
1P
1^
1W
0d
1j
1t
1"b
b1000 2
b1000 )
0^
0>
0#R
0b
0c
1#O
0#a
08
0]
0#?
0U
1#B
0#`
07
1w
15
1u
0W
1S
0P
1Y
1#8
1#M
1Q
1]
1#?
1U
0#B
1#`
17
1c
0#O
1#a
18
1P
0w
05
0u
1W
0S
1#3
1H
1"l
0#6
0D
0"X
0"]
0#9
0R
0#-
0t
0"b
b0000 2
b0000 )
0"^
1A
1"F
1"K
1t
1"b
b1000 2
b1000 )
1"L
0&
0/
0#}
1#s
1i
1#Z
0#|
0m
0f
1#U
1F
1#*
1#D
1"c
1#+
0#)
0;
0"#
0"(
0G
0$'
0$,
0#C
0X
0#8
0")
0$-
1#6
1D
1"X
1"]
1"^
#20000
0!
0*
1$7
0$2
0<
#25000
1!
1*
0$7
1$2
1<
0"$
1"G
0$(
1"m
1"g
1#H
1y
1#K
0"h
0I
0#0
0$#
0#[
0s
1v
0r
0#o
1#_
0#e
1"B
19
0#@
0}
0=
1#O
b0100 3
1>
0P
1S
1d
0j
0t
0"b
1^
1#/
1#2
0\
b0100 2
b0100 )
1#=
1M
1#'
0#;
0c
0#N
0#a
08
0^
0>
1#R
1b
0]
1#@
0U
1#B
0#`
07
1w
15
0v
0W
0S
0Y
0#M
0Q
1]
0#@
1U
0#B
1#`
17
1c
1#N
1#a
18
1P
1N
1#-
1#&
1J
1"{
0A
0"F
0"K
0#L
0O
0#*
0#,
0P
0w
05
1v
1W
1S
1Z
0#3
0H
0"l
1#9
1R
1t
1"b
b1100 2
b1100 )
0"L
0#+
1#)
1;
1"#
1"(
0#6
0D
0"X
0"]
0t
0"b
1A
1"F
1"K
b0100 2
b0100 )
1")
0"^
1"L
0#
0,
0#'
1#M
1Q
1#,
0#&
0J
0"{
1#n
1B
1#7
0#5
0V
1$9
1$;
0$6
0Z
0A
0"F
0"K
1#3
1H
1"l
0"L
#30000
0!
0*
1$7
0$8
0$2
0<
#35000
1!
1*
0$7
#40000
0!
0*
1$7
#45000
1!
1*
0$7
#50000
0!
0*
1$7
#55000
1!
1*
0$7
#60000
0!
0*
1$7
#65000
1!
1*
0$7
#70000
0!
0*
1$7
#75000
1!
1*
0$7
#80000
0!
0*
1$7
#85000
1!
1*
0$7
1#
1,
1#'
1&
1/
1#}
0#s
0i
0#Z
1#|
1m
0#M
0Q
0#,
1#&
1J
1"{
0#n
0B
0#7
1#5
1V
0$9
0$;
1$6
1#6
1D
1"X
1"]
1Z
1A
1"F
1"K
0#3
0H
0"l
1f
1"^
1"L
0#U
0F
1#*
0#D
0"c
0#6
0D
0"X
0"]
1#+
0"^
0#)
0;
0"#
0"(
1G
1$'
1$,
1#C
1X
0")
1$-
0Z
1#6
1D
1"X
1"]
1"^
#90000
0!
0*
1$7
1$8
#95000
1!
1*
0$7
1$2
1<
1$(
0"m
1"|
1"v
1n
1x
1#u
1#y
0q
0"w
0K
0"g
0#H
0y
0#K
1"h
1I
1#0
1$#
1#[
1s
0v
1r
1#o
0#_
1#e
b1010 3
0d
1j
1t
1"b
1^
0#/
0#2
1\
1>
1o
1#%
0#w
0C
1#E
0"P
1#;
b1010 2
b1010 )
0N
0#*
1?
1"5
0#C
0X
0U
1#B
0#`
07
0#=
0M
0#'
0#:
0c
0#N
0]
1#@
0#a
08
0^
0>
0#R
0b
0#+
1#)
1;
1"#
1"(
1Y
1#M
1Q
1#,
1]
0#@
1U
0#B
1#`
17
1c
1#N
1#a
18
1w
15
1u
0S
1P
1N
1#*
0#&
0J
0"{
0W
1Z
1#L
1O
1")
1#+
0#)
0;
0"#
0"(
0#6
0D
0"X
0"]
0#L
0O
0t
0"b
0P
0w
05
0u
1W
1S
0Z
0A
0"F
0"K
1#3
1H
1"l
0#9
0R
b0010 2
b0010 )
0")
0"^
0"L
1#6
1D
1"X
1"]
1t
1"b
b1010 2
b1010 )
1"^
0&
0/
0#}
1#s
1i
1#Z
0#|
0m
0f
1#U
1F
0#*
0#E
1"c
0#+
1#)
1;
1"#
1"(
0G
0$'
0$,
1#C
1X
1#8
1")
0$-
0#6
0D
0"X
0"]
0"^
#100000
0!
0*
1$7
0$2
0<
#105000
1!
1*
0$7
1$2
1<
1"$
0"G
0"Y
0$(
1"6
1"m
0"|
0"v
0n
0x
0#u
0#y
1q
1"w
1K
1"g
1#H
1y
1#K
0"h
0I
0#0
1"0
1#F
1#{
0"1
0:
0">
0#\
1#_
0$#
0#[
0s
1v
0r
0#o
0#^
0#e
0"T
0E
1#B
0"B
09
1#@
1}
1=
0#O
b0101 3
1P
0S
0W
1d
0t
0"b
11
1(
1"=
1#/
1#2
0\
0o
0#%
1#w
1C
1#D
1"P
1#:
b0101 2
b0101 )
0N
0#-
0?
0"5
0#C
0X
0#8
1#=
1M
1#'
0#;
1#R
1b
0Y
0#M
0Q
0#,
1N
1#-
1#&
1J
1"{
1#6
1D
1"X
1"]
1A
1"F
1"K
1#L
1O
1#*
1#,
1"^
1"L
1#+
0#)
0;
0"#
0"(
0A
0"F
0"K
0#L
0O
0#*
0#,
1Z
0#3
0H
0"l
1#9
1R
0")
0"L
0#+
1#)
1;
1"#
1"(
0#6
0D
0"X
0"]
1A
1"F
1"K
1")
0"^
1"L
#110000
0!
0*
1$7
0$2
0<
#115000
1!
1*
0$7
1$2
1<
1"G
0"6
0"m
1"|
1"v
1n
1x
1#u
1#y
0q
0"w
0K
0"g
0#H
0y
0#K
1"h
1I
1#0
0"0
0#F
0#{
1"1
1:
1">
1#\
1#^
1"B
19
0#@
b0010 3
1S
0j
01
0(
0"=
1^
0#/
0#2
1\
1>
1o
1#%
0#w
0C
0#D
0"P
1#;
b0010 2
b0010 )
0N
1?
1"5
1#C
1X
0U
0#A
0#`
07
0#=
0M
0#'
0#:
0c
1#O
0]
1#@
0#a
08
0^
0>
1]
0#@
1U
1#A
1#`
17
1c
0#O
1#a
18
1w
15
0v
0S
0P
1N
0#&
0J
0"{
1W
0Z
1#L
1O
1#*
1#,
1#+
0#)
0;
0"#
0"(
0A
0"F
0"K
1#6
1D
1"X
1"]
0#L
0O
0#*
0#,
1t
1"b
1P
0w
05
1v
0W
1S
b1010 2
b1010 )
0")
0"L
1"^
0#+
1#)
1;
1"#
1"(
0t
0"b
1A
1"F
1"K
b0010 2
b0010 )
1")
1"L
#120000
0!
0*
1$7
0$2
0<
#125000
1!
1*
0$7
1$2
1<
1"Y
1"6
0"|
0"v
0n
0x
0#u
0#y
1q
1"w
1K
1"0
1#F
1#{
0"1
0:
0">
0#\
0#^
1"T
1E
0#B
b0001 3
1^
1W
1j
11
1(
1"=
1>
0o
0#%
1#w
1C
1#D
1"P
1#:
b0001 2
b0001 )
0N
0?
0"5
0#C
0X
0U
1#B
0#`
07
0^
0>
0c
1#O
0]
1#@
0#a
08
1w
15
0v
0S
0P
1]
0#@
1U
0#B
1#`
17
1c
0#O
1#a
18
0W
1Z
1#L
1O
1#*
1#,
1#+
0#)
0;
0"#
0"(
0A
0"F
0"K
0#6
0D
0"X
0"]
1P
0w
05
1v
1W
1S
1t
1"b
b1001 2
b1001 )
0")
0"L
0"^
0t
0"b
b0001 2
b0001 )
b01 $
b01 -
1#W
1#t
1#Q
1#<
1#p
1#l
1#\
1&
1/
1#}
0#s
0i
1#|
1m
1#x
0l
01
0(
0#m
0_
0#f
1#k
1a
1#K
1#e
0#w
0C
0#D
0"P
0#:
1N
1?
1"5
1#C
1X
0\
1#=
1M
1#'
1#:
0Z
0#L
0O
0#*
0#,
0#+
1#)
1;
1"#
1"(
1A
1"F
1"K
1#6
1D
1"X
1"]
0N
1#&
1J
1"{
1")
1"L
1"^
1#L
1O
1#*
1#,
1#+
0#)
0;
0"#
0"(
0A
0"F
0"K
0")
0"L
#130000
0!
0*
1$7
0$2
0<
#135000
1!
1*
0$7
1$2
1<
0"$
0"G
1"|
1"v
1n
1x
1#u
0q
1#f
0"w
0K
0"B
09
1#@
0}
0=
1#O
b0011 3
0P
0S
0d
1o
1#%
b0011 2
b0011 )
0#R
0b
1Y
1#8
1#M
1Q
1#3
1H
1"l
0#6
0D
0"X
0"]
0#9
0R
0#-
0"^
1A
1"F
1"K
1"L
#140000
0!
0*
1$7
0$2
0<
