versiones_finales/Registro/TSMC_Hamming_8/FLOW/common/rtl/sverilog/waveforms.vcd
$date
	Sat May 17 17:41:32 2025
$end

$version
	Synopsys VCS version U-2023.03-SP2_Full64
$end

$timescale
	1ps
$end

$comment Csum: 1 3ad4d1e4ecd9b4ba $end


$scope module universal_register_8bit_tb $end
$var reg 1 ! clk $end
$var reg 1 " rst $end
$var reg 1 # enable $end
$var reg 2 $ mode [1:0] $end
$var reg 1 % load $end
$var reg 1 & siso_in $end
$var reg 4 ' parallel_in [3:0] $end
$var reg 1 ( siso_out $end
$var reg 4 ) parallel_out [3:0] $end

$scope task inject_error $end
$var reg 4 * value [3:0] $end
$upscope $end


$scope module dut $end
$var reg 4 + reg_data [3:0] $end
$var reg 1 , clk $end
$var reg 1 - rst $end
$var reg 1 . enable $end
$var reg 2 / mode [1:0] $end
$var reg 1 0 load $end
$var reg 1 1 siso_in $end
$var reg 4 2 parallel_in [3:0] $end
$var reg 1 3 siso_out $end
$var reg 4 4 parallel_out [3:0] $end
$var reg 4 5 reg_data_next [3:0] $end
$var reg 4 6 corrected_data [3:0] $end
$var reg 3 7 syndrome [2:0] $end
$var reg 1 8 fault $end
$var reg 4 9 parallel_out_reg [3:0] $end
$var reg 1 : p1 $end
$var reg 1 ; p2 $end
$var reg 1 < p3 $end
$var reg 1 = p1_next $end
$var reg 1 > p2_next $end
$var reg 1 ? p3_next $end
$var reg 1 @ p1_corr $end
$var reg 1 A p2_corr $end
$var reg 1 B p3_corr $end

$scope function calculate_hamming $end
$var reg 4 C data [3:0] $end
$var reg 1 D p1_out $end
$var reg 1 E p2_out $end
$var reg 1 F p3_out $end
$upscope $end


$scope module syndrome_inst $end
$var reg 4 G data [3:0] $end
$var reg 1 H p1 $end
$var reg 1 I p2 $end
$var reg 1 J p3 $end
$var reg 3 K syndrome [2:0] $end
$upscope $end

$upscope $end

$upscope $end

$enddefinitions $end

#0
$dumpvars
0D
0E
0F
0!
0.
00
0-
01
03
0#
08
0%
0:
0@
0=
0;
0A
0>
0<
0B
0?
0"
0&
0(
0H
0I
0J
b0000 +
b0000 C
b0000 6
b00 /
b0000 2
b0000 4
bxxxx *
b00 $
b0000 '
b0000 )
bxxxx 9
b0000 5
b000 7
b0000 G
b000 K
0,
$end
#5000
1!
1,
1"
1-
1#
1.
1&
11
b1000 C
1>
1=
1E
1D
b1000 5
#10000
0!
0,
#15000
1!
1,
0&
01
b1000 +
b1000 G
1:
1H
1;
1I
b0100 C
1?
0>
1F
0E
b0100 5
b1000 4
b1000 )
1A
1@
b1000 6
b000 7
b000 K
#20000
0!
0,
#25000
1!
1,
0#
0.
b0100 +
b0100 G
0;
0I
1<
1J
b0100 4
b0100 )
b0010 C
1>
0=
1E
0D
b0010 5
1B
0A
b0100 6
b000 7
b000 K
#30000
0!
0,
#35000
1!
1,
#40000
0!
0,
#45000
1!
1,
#50000
0!
0,
#55000
1!
1,
b0000 +
b0000 G
b0000 4
b0000 )
b0000 C
0?
0>
0F
0E
b0000 5
b0000 6
b101 7
b101 K
b0100 6
18
b0100 4
b0100 )
#60000
0!
0,
#65000
1!
1,
b0100 +
b0100 G
b0010 C
1?
1>
1F
1E
b0010 5
b0000 6
b000 7
b000 K
b0000 4
b0000 )
b0100 6
08
b0100 4
b0100 )
#70000
0!
0,
#75000
1!
1,
#80000
0!
0,
#85000
1!
1,
1#
1.
1&
11
b1010 C
0>
1=
0E
1D
b1010 5
#90000
0!
0,
#95000
1!
1,
0&
01
b1010 +
b1010 G
b0101 C
0?
1>
0=
0F
1E
0D
b0101 5
b1010 4
b1010 )
b1010 6
#100000
0!
0,
#105000
1!
1,
b0101 +
b0101 G
0:
0H
1;
1I
0<
0J
b0101 4
b0101 )
b0010 C
1?
1F
b0010 5
0B
1A
0@
b0101 6
b000 7
b000 K
13
1(
#110000
0!
0,
#115000
1!
1,
b0010 +
b0010 G
1<
1J
b0010 4
b0010 )
b0001 C
1=
1D
b0001 5
1B
b0010 6
b000 7
b000 K
03
0(
#120000
0!
0,
#125000
1!
1,
b01 $
b01 /
1&
11
b0001 +
b0001 G
1:
1H
b0011 C
0?
0>
0F
0E
b0011 5
b0001 4
b0001 )
1@
b0001 6
b000 7
b000 K
#130000
0!
0,
#135000
1!
1,
b0011 +
b0011 G
0;
0I
0<
0J
b0011 4
b0011 )
b0111 C
1?
0=
1F
0D
b0111 5
0B
0A
b0011 6
b000 7
b000 K
#140000
0!
0,
#145000
1!
1,
0#
0.
b0111 +
b0111 G
0:
0H
1<
1J
b0111 4
b0111 )
b1111 C
1>
1=
1E
1D
b1111 5
1B
0@
b0111 6
b000 7
b000 K
#150000
0!
0,
#155000
1!
1,
#160000
0!
0,
#165000
1!
1,
#170000
0!
0,
#175000
1!
1,
b0101 +
b0101 G
b0101 4
b0101 )
b1011 C
0?
0=
0F
0D
b1011 5
b0101 6
b110 7
b110 K
b0111 6
18
b0111 4
b0111 )
#180000
0!
0,
#185000
1!
1,
b0111 +
b0111 G
b1111 C
1?
1=
1F
1D
b1111 5
b0101 6
b000 7
b000 K
b0101 4
b0101 )
b0111 6
08
b0111 4
b0111 )
#190000
0!
0,
#195000
1!
1,
#200000
0!
0,
#205000
1!
1,
1#
1.
#210000
0!
0,
#215000
1!
1,
0&
01
b1111 +
b1111 G
1:
1H
1;
1I
b1110 C
0?
0>
0=
0F
0E
0D
b1110 5
b1111 4
b1111 )
1A
1@
b1111 6
b000 7
b000 K
13
1(
#220000
0!
0,
#225000
1!
1,
b10 $
b10 /
b1011 '
b1011 2
1%
10
b1110 +
b1110 G
0:
0H
0;
0I
0<
0J
b1011 C
1>
1E
b1011 5
b1110 4
b1110 )
0B
0A
0@
b1110 6
b000 7
b000 K
03
0(
#230000
0!
0,
#235000
1!
1,
0%
00
b1011 +
b1011 G
1;
1I
b0101 C
b0101 5
b1011 4
b1011 )
1A
b1011 6
b000 7
b000 K
13
1(
#240000
0!
0,
#245000
1!
1,
b0101 +
b0101 G
b0101 4
b0101 )
b0010 C
1?
1F
b0010 5
b0101 6
#250000
0!
0,
#255000
1!
1,
0#
0.
b0010 +
b0010 G
1<
1J
b0010 4
b0010 )
b0001 C
1=
1D
b0001 5
1B
b0010 6
b000 7
b000 K
03
0(
#260000
0!
0,
#265000
1!
1,
#270000
0!
0,
#275000
1!
1,
#280000
0!
0,
#285000
1!
1,
b1010 +
b1010 G
b1010 4
b1010 )
b0101 C
0?
0=
0F
0D
b0101 5
b1010 6
b011 7
b011 K
b0010 6
18
b0010 4
b0010 )
#290000
0!
0,
#295000
1!
1,
b0010 +
b0010 G
b0001 C
1?
1=
1F
1D
b0001 5
b1010 6
b000 7
b000 K
b1010 4
b1010 )
b0010 6
08
b0010 4
b0010 )
#300000
0!
0,
#305000
1!
1,
#310000
0!
0,
#315000
1!
1,
1#
1.
#320000
0!
0,
#325000
1!
1,
b0001 +
b0001 G
1:
1H
b0001 4
b0001 )
b0000 C
0?
0>
0=
0F
0E
0D
b0000 5
1@
b0001 6
b000 7
b000 K
13
1(
#330000
0!
0,
#335000
1!
1,
b0000 +
b0000 G
0:
0H
0;
0I
0<
0J
b0000 4
b0000 )
0B
0A
0@
b0000 6
b000 7
b000 K
03
0(
#340000
0!
0,
#345000
1!
1,
#350000
0!
0,
#355000
1!
1,
#360000
0!
0,
#365000
1!
1,
#370000
0!
0,
#375000
1!
1,
b11 $
b11 /
b1101 '
b1101 2
1%
10
b1101 C
1=
1D
b1101 5
#380000
0!
0,
#385000
1!
1,
b1100 *
b1100 +
b1100 G
b1100 4
b1100 )
b1100 6
b110 7
b110 K
13
1(
b1110 6
18
b1110 4
b1110 )
1:
1H
1@
b111 7
b111 K
b1101 6
b1101 4
b1101 )
#390000
0!
0,
#395000
1!
1,
0%
00
b1101 +
b1101 G
b1100 6
b000 7
b000 K
b1100 4
b1100 )
b1101 6
08
b1101 4
b1101 )
