versiones_finales/Contador/TSMC_Hamming_16_version2/FLOW/common/rtl/sverilog/waveform.vcd
$date
	Mon May 19 20:03:59 2025
$end

$version
	Synopsys VCS version R-2020.12-SP2_Full64
$end

$timescale
	1ps
$end

$comment Csum: 1 6595e5a54ac14293 $end


$scope module tb_top $end
$var reg 1 ! clk $end
$var reg 1 " reset $end
$var reg 1 # enable $end
$var wire 16 $ counter [15:0] $end

$scope module dut $end
$var reg 1 % clk $end
$var reg 1 & reset $end
$var reg 1 ' enable $end
$var reg 16 ( counter [15:0] $end
$var reg 12 ) parity_stored [11:0] $end
$var reg 1 * busy $end
$var wire 1 + error_detected_data $end
$var reg 12 , syndrome [11:0] $end
$var reg 12 - parity [11:0] $end
$var reg 16 . corrected_counter [15:0] $end
$var reg 12 / corrected_parity [11:0] $end
$var reg 1 0 enable_last $end

$scope module counter_and_parity $end
$var reg 16 1 count_reg [15:0] $end
$var wire 1 2 clk $end
$var wire 1 3 reset $end
$var wire 1 4 enable $end
$var wire 16 5 corrected_counter [15:0] $end
$var wire 12 6 corrected_parity [11:0] $end
$var reg 16 7 counter [15:0] $end
$var reg 12 8 parity [11:0] $end
$var reg 12 9 parity_stored [11:0] $end
$var reg 1 : busy $end
$var reg 1 ; error_detected_data $end
$var reg 1 < enable_last $end
$var reg 16 = count_neg [15:0] $end
$var reg 16 > counter_stored [15:0] $end
$var reg 1 ? reset_last $end
$var reg 1 @ reset_done $end
$var integer 32 A i $end
$upscope $end


$scope module syndrome_inst $end
$var wire 1 B clk $end
$var wire 1 C enable $end
$var wire 12 D parity [11:0] $end
$var wire 12 E parity_stored [11:0] $end
$var wire 16 F counter_reg [15:0] $end
$var reg 12 G syndrome [11:0] $end
$var wire 1 H busy $end
$var reg 16 I corrected_counter [15:0] $end
$var reg 1 J error_detected_parity $end
$var wire 1 + error_detected_data $end
$var reg 12 K corrected_parity [11:0] $end
$var wire 1 L enable_last $end
$var wire 1 M reset $end
$var integer 32 N i $end

$scope begin unnamed$$_0 $end
$upscope $end


$scope begin unnamed$$_1 $end
$upscope $end

$upscope $end

$upscope $end

$upscope $end

$enddefinitions $end

#0
$dumpvars
0*
0!
0:
04
0<
0;
13
0'
1&
0#
00
0+
0J
1"
0@
x?
0H
0C
0L
1M
b0000000000000000 1
b0000000000000000 .
b000000000000 /
b0000000000000000 =
b0000000000000000 $
b0000000000000000 5
b000000000000 6
b0000000000000000 7
b000000000000 8
b000000000000 9
b0000000000000000 F
b0000000000000000 >
b0000000000000000 (
bxxxxxxxxxxxxxxxxxxxxxxxxxxxxxxxx A
b000000000000 -
b000000000000 )
b000000000000 ,
b0000000000000000 I
b000000000000 K
b00000000000000000000000000000100 N
b000000000000 D
b000000000000 E
b000000000000 G
02
0B
0%
$end
#5000
1!
1%
12
1B
0"
0&
0M
03
1#
1'
1C
14
#10000
0!
0%
02
0B
#15000
1!
1%
12
1B
1@
b0000000000000001 1
b0000000000000001 7
b0000000000000001 (
b0000000000000001 $
b0000000000000001 F
b000000000111 G
1J
b000000000111 ,
#20000
0!
0%
02
0B
b0000000000000001 =
#25000
1!
1%
12
1B
1<
10
1L
b0000000000000010 1
b0000000000000010 7
b0000000000000010 (
b0000000000000010 $
b0000000000000010 F
#30000
0!
0%
02
0B
b0000000000000010 =
#35000
1!
1%
12
1B
b0000000000000011 1
b0000000000000011 7
b0000000000000011 (
b0000000000000011 $
b0000000000000011 F
#40000
0!
0%
02
0B
b0000000000000011 =
#45000
1!
1%
12
1B
b0000000000000100 1
b0000000000000100 7
b0000000000000100 (
b0000000000000100 $
b0000000000000100 F
#50000
0!
0%
02
0B
b0000000000000100 =
#55000
1!
1%
12
1B
b0000000000000101 1
b0000000000000101 7
b0000000000000101 (
b0000000000000101 $
b0000000000000101 F
#60000
0!
0%
02
0B
b0000000000000101 =
#65000
1!
1%
12
1B
b0000000000000110 1
b0000000000000110 7
b0000000000000110 (
b0000000000000110 $
b0000000000000110 F
#70000
0!
0%
02
0B
b0000000000000110 =
#75000
1!
1%
12
1B
b0000000000000111 1
b0000000000000111 7
b0000000000000111 (
b0000000000000111 $
b0000000000000111 F
#80000
0!
0%
02
0B
b0000000000000111 =
#85000
1!
1%
12
1B
b0000000000001000 1
b0000000000001000 7
b0000000000001000 (
b0000000000001000 $
b0000000000001000 F
#90000
0!
0%
02
0B
b0000000000001000 =
#95000
1!
1%
12
1B
b0000000000001001 1
b0000000000001001 7
b0000000000001001 (
b0000000000001001 $
b0000000000001001 F
#100000
0!
0%
02
0B
b0000000000001001 =
#105000
1!
1%
12
1B
b0000000000001010 1
b0000000000001010 7
b0000000000001010 (
b0000000000001010 $
b0000000000001010 F
#110000
0!
0%
02
0B
b0000000000001010 =
#115000
1!
1%
12
1B
b0000000000001011 1
b0000000000001011 7
b0000000000001011 (
b0000000000001011 $
b0000000000001011 F
#120000
0!
0%
02
0B
b0000000000001011 =
#125000
1!
1%
12
1B
b0000000000001100 1
b0000000000001100 7
b0000000000001100 (
b0000000000001100 $
b0000000000001100 F
#130000
0!
0%
02
0B
b0000000000001100 =
#135000
1!
1%
12
1B
b1000000100011010 1
b1000000100011011 1
b1000000100011010 7
b1000000100011010 (
b1000000100011010 $
b1000000100011010 F
b1000000100011011 7
b1000000100011011 (
b1000000100011011 $
b1000000100011011 F
#140000
0!
0%
02
0B
b1000000100011011 =
#145000
1!
1%
12
1B
b1000000100011100 1
b1000000100011100 7
b1000000100011100 (
b1000000100011100 $
b1000000100011100 F
#150000
0!
0%
02
0B
b1000000100011100 =
#155000
1!
1%
12
1B
b1000000100011101 1
b1000000100011101 7
b1000000100011101 (
b1000000100011101 $
b1000000100011101 F
#160000
0!
0%
02
0B
b1000000100011101 =
#165000
1!
1%
12
1B
b1000000100011110 1
b1000000100011110 7
b1000000100011110 (
b1000000100011110 $
b1000000100011110 F
#170000
0!
0%
02
0B
b1000000100011110 =
#175000
1!
1%
12
1B
b1000000100011111 1
b1000000100011111 7
b1000000100011111 (
b1000000100011111 $
b1000000100011111 F
#180000
0!
0%
02
0B
b1000000100011111 =
#185000
1!
1%
12
1B
b1000000100100000 1
b1000000100100000 7
b1000000100100000 (
b1000000100100000 $
b1000000100100000 F
#190000
0!
0%
02
0B
b1000000100100000 =
#195000
1!
1%
12
1B
b1000000100100001 1
b1000000100100001 7
b1000000100100001 (
b1000000100100001 $
b1000000100100001 F
#200000
0!
0%
02
0B
b1000000100100001 =
#205000
1!
1%
12
1B
b1000000100100010 1
b1000000100100010 7
b1000000100100010 (
b1000000100100010 $
b1000000100100010 F
#210000
0!
0%
02
0B
b1000000100100010 =
#215000
1!
1%
12
1B
b1000000100100011 1
b1000000100100011 7
b1000000100100011 (
b1000000100100011 $
b1000000100100011 F
#220000
0!
0%
02
0B
b1000000100100011 =
#225000
1!
1%
12
1B
b1000000100100100 1
b1000000100100100 7
b1000000100100100 (
b1000000100100100 $
b1000000100100100 F
#230000
0!
0%
02
0B
b1000000100100100 =
#235000
1!
1%
12
1B
b1000000100100101 1
b1000000100100101 7
b1000000100100101 (
b1000000100100101 $
b1000000100100101 F
#240000
0!
0%
02
0B
b1000000100100101 =
#245000
1!
1%
12
1B
b1000000100100110 1
b1000000100100110 7
b1000000100100110 (
b1000000100100110 $
b1000000100100110 F
#250000
0!
0%
02
0B
b1000000100100110 =
#255000
1!
1%
12
1B
b1000000100100111 1
b1000000100100111 7
b1000000100100111 (
b1000000100100111 $
b1000000100100111 F
#260000
0!
0%
02
0B
b1000000100100111 =
