versiones_finales/Memoria/TSMC_memoria_TMR/FLOW/common/rtl/sverilog/dump.vcd
$date
	Sat May 17 03:14:04 2025
$end

$version
	Synopsys VCS version U-2023.03-SP2_Full64
$end

$timescale
	1ps
$end

$comment Csum: 1 8cefb5e4884a7994 $end


$scope module tb_sram_2kbit $end
$var reg 1 ! clk $end
$var reg 1 " enable $end
$var reg 1 # rst $end
$var reg 1 $ we $end
$var reg 8 % addr [7:0] $end
$var reg 8 & data_in [7:0] $end
$var reg 8 ' data_out [7:0] $end

$scope module dut $end
$var reg 1 ( clk $end
$var reg 1 ) rst $end
$var reg 1 * enable $end
$var reg 1 + we $end
$var reg 8 , addr [7:0] $end
$var reg 8 - data_in [7:0] $end
$var reg 8 . data_out [7:0] $end
$var reg 8 / data_out_1 [7:0] $end
$var reg 8 0 data_out_2 [7:0] $end
$var reg 8 1 data_out_3 [7:0] $end
$var reg 1 2 mismatch_1 $end
$var reg 1 3 mismatch_2 $end
$var reg 1 4 mismatch_3 $end
$var reg 1 5 mismatch_1_d $end
$var reg 1 6 mismatch_2_d $end
$var reg 1 7 mismatch_3_d $end
$var reg 1 8 write_back_1 $end
$var reg 1 9 write_back_2 $end
$var reg 1 : write_back_3 $end

$scope module voter $end
$var reg 8 ; mem_1 [7:0] $end
$var reg 8 < mem_2 [7:0] $end
$var reg 8 = mem_3 [7:0] $end
$var reg 8 > mem_out [7:0] $end

$scope begin unnamed$$_0 $end
$upscope $end

$upscope $end


$scope module memory_1 $end
$var reg 1 ? clk $end
$var reg 1 @ rst $end
$var reg 1 A enable $end
$var reg 1 B we $end
$var reg 1 C write_back $end
$var reg 8 D corrected_data [7:0] $end
$var reg 8 E addr [7:0] $end
$var reg 8 F data_in [7:0] $end
$var reg 8 G data_out [7:0] $end
$var reg 8 H addr_r [7:0] $end
$upscope $end


$scope module memory_2 $end
$var reg 1 I clk $end
$var reg 1 J rst $end
$var reg 1 K enable $end
$var reg 1 L we $end
$var reg 1 M write_back $end
$var reg 8 N corrected_data [7:0] $end
$var reg 8 O addr [7:0] $end
$var reg 8 P data_in [7:0] $end
$var reg 8 Q data_out [7:0] $end
$var reg 8 R addr_r [7:0] $end
$upscope $end


$scope module memory_3 $end
$var reg 1 S clk $end
$var reg 1 T rst $end
$var reg 1 U enable $end
$var reg 1 V we $end
$var reg 1 W write_back $end
$var reg 8 X corrected_data [7:0] $end
$var reg 8 Y addr [7:0] $end
$var reg 8 Z data_in [7:0] $end
$var reg 8 [ data_out [7:0] $end
$var reg 8 \ addr_r [7:0] $end
$upscope $end

$upscope $end

$upscope $end

$enddefinitions $end

#0
$dumpvars
0!
0"
02
05
03
06
04
07
1#
0$
b00000000 %
b00000000 &
b00000000 '
b00000000 /
b00000000 0
b00000000 1
b00000000 ,
b00000000 -
b00000000 .
b00000000 ;
b00000000 <
b00000000 =
b00000000 >
b00000000 E
b00000000 H
b00000000 D
b00000000 F
b00000000 G
b00000000 O
b00000000 R
b00000000 N
b00000000 P
b00000000 Q
b00000000 Y
b00000000 \
b00000000 X
b00000000 Z
b00000000 [
0(
0?
0I
0S
1)
1@
1J
1T
0*
0A
0K
0U
0+
0B
0L
0V
08
0C
09
0M
0:
0W
$end
#5000
1!
1(
1?
1I
1S
0#
0)
0@
0J
0T
#10000
0!
0(
0?
0I
0S
#15000
1!
1(
1?
1I
1S
1"
1*
1A
1K
1U
1$
1+
1B
1L
1V
b00001010 %
b00001010 ,
b00001010 Y
b00001010 O
b00001010 E
b00101100 &
b00101100 -
b00101100 Z
b00101100 P
b00101100 F
#20000
0!
0(
0?
0I
0S
#25000
1!
1(
1?
1I
1S
b00010100 %
b00010100 ,
b00010100 Y
b00010100 O
b00010100 E
b00111100 &
b00111100 -
b00111100 Z
b00111100 P
b00111100 F
b00001010 H
b00001010 R
b00001010 \
#30000
0!
0(
0?
0I
0S
#35000
1!
1(
1?
1I
1S
b00011110 %
b00011110 ,
b00011110 Y
b00011110 O
b00011110 E
b10100101 &
b10100101 -
b10100101 Z
b10100101 P
b10100101 F
b00010100 H
b00010100 R
b00010100 \
#40000
0!
0(
0?
0I
0S
#45000
1!
1(
1?
1I
1S
0$
0+
0B
0L
0V
b00001010 %
b00001010 ,
b00001010 Y
b00001010 O
b00001010 E
b00011110 H
b00011110 R
b00011110 \
#50000
0!
0(
0?
0I
0S
#55000
1!
1(
1?
1I
1S
b00010100 %
b00010100 ,
b00010100 Y
b00010100 O
b00010100 E
b00001010 H
b00101100 G
b00101100 /
b00101100 ;
b00001010 R
b00101100 Q
b00101100 0
b00101100 <
b00001010 \
b00101100 [
b00101100 1
b00101100 =
14
13
12
b00101100 >
b00101100 .
b00101100 X
b00101100 N
b00101100 D
b00101100 '
1:
1W
19
1M
18
1C
04
03
02
0:
0W
09
0M
08
0C
#60000
0!
0(
0?
0I
0S
#65000
1!
1(
1?
1I
1S
b00011110 %
b00011110 ,
b00011110 Y
b00011110 O
b00011110 E
b00010100 H
b00111100 G
b00111100 /
b00111100 ;
b00010100 R
b00111100 Q
b00111100 0
b00111100 <
b00010100 \
b00111100 [
b00111100 1
b00111100 =
14
13
12
b00111100 >
b00111100 .
b00111100 X
b00111100 N
b00111100 D
b00111100 '
1:
1W
19
1M
18
1C
04
03
02
0:
0W
09
0M
08
0C
#70000
0!
0(
0?
0I
0S
#75000
1!
1(
1?
1I
1S
b00001010 %
b00001010 ,
b00001010 Y
b00001010 O
b00001010 E
b00011110 H
b10100101 G
b10100101 /
b10100101 ;
b00011110 R
b10100101 Q
b10100101 0
b10100101 <
b00011110 \
b10100101 [
b10100101 1
b10100101 =
14
13
12
b10100101 >
b10100101 .
b10100101 X
b10100101 N
b10100101 D
b10100101 '
1:
1W
19
1M
18
1C
04
03
02
0:
0W
09
0M
08
0C
#80000
0!
0(
0?
0I
0S
#85000
1!
1(
1?
1I
1S
b00010100 %
b00010100 ,
b00010100 Y
b00010100 O
b00010100 E
b00001010 H
b00000000 G
b00000000 /
b00000000 ;
b00001010 R
b00101100 Q
b00101100 0
b00101100 <
b00001010 \
b00101100 [
b00101100 1
b00101100 =
14
13
12
b00101100 >
b00101100 .
b00101100 X
b00101100 N
b00101100 D
b00101100 '
1:
1W
19
1M
18
1C
04
03
0:
0W
09
0M
#90000
0!
0(
0?
0I
0S
#95000
1!
1(
1?
1I
1S
b00011110 %
b00011110 ,
b00011110 Y
b00011110 O
b00011110 E
15
b00010100 H
b00010100 R
b11111111 Q
b11111111 0
b11111111 <
b00010100 \
b00111100 [
b00111100 1
b00111100 =
08
0C
14
13
b00111100 >
b00111100 .
b00111100 X
b00111100 N
b00111100 D
b00111100 '
1:
1W
19
1M
04
0:
0W
#100000
0!
0(
0?
0I
0S
#105000
1!
1(
1?
1I
1S
16
b00011110 H
b10100101 G
b10100101 /
b10100101 ;
b00011110 R
b00011110 \
b00000000 [
b00000000 1
b00000000 =
09
0M
14
b10100101 >
b10100101 .
b10100101 X
b10100101 N
b10100101 D
b10100101 '
1:
1W
02
#110000
0!
0(
0?
0I
0S
#115000
1!
1(
1?
1I
1S
05
17
b10100101 Q
b10100101 0
b10100101 <
0:
0W
03
#120000
0!
0(
0?
0I
0S
#125000
1!
1(
1?
1I
1S
b00001010 %
b00001010 ,
b00001010 Y
b00001010 O
b00001010 E
06
b10100101 [
b10100101 1
b10100101 =
04
#130000
0!
0(
0?
0I
0S
#135000
1!
1(
1?
1I
1S
07
b00001010 H
b00101100 G
b00101100 /
b00101100 ;
b00001010 R
b00101100 Q
b00101100 0
b00101100 <
b00001010 \
b00010001 [
b00010001 1
b00010001 =
14
13
12
b00101100 >
b00101100 .
b00101100 X
b00101100 N
b00101100 D
b00101100 '
1:
1W
19
1M
18
1C
03
02
09
0M
08
0C
#140000
0!
0(
0?
0I
0S
#145000
1!
1(
1?
1I
1S
17
0:
0W
#150000
0!
0(
0?
0I
0S
#155000
1!
1(
1?
1I
1S
b00101100 [
b00101100 1
b00101100 =
04
