versiones_finales/Registro/TSMC_Hamming_4_version2/FLOW/fc_flow/results/waveforms.vcd
$date
	Wed May 21 15:24:57 2025
$end

$version
	Synopsys VCS version R-2020.12-SP2_Full64
$end

$timescale
	1ps
$end

$comment Csum: 1 7c4459795920dd8a $end


$scope module universal_register_4bit_tb $end
$var reg 1 ! clk $end
$var reg 1 " rst $end
$var reg 1 # enable $end
$var reg 2 $ mode [1:0] $end
$var reg 1 % load $end
$var reg 1 & serial_in $end
$var reg 4 ' parallel_in [3:0] $end
$var reg 1 ( serial_out $end
$var reg 4 ) parallel_out [3:0] $end
$var reg 4 * reg_data [3:0] $end

$scope module dut $end
$var wire 1 + clk $end
$var wire 1 , rst $end
$var wire 1 - enable $end
$var wire 2 . mode [1:0] $end
$var wire 1 / load $end
$var wire 1 0 serial_in $end
$var wire 4 1 parallel_in [3:0] $end
$var wire 1 2 serial_out $end
$var wire 4 3 parallel_out [3:0] $end
$var wire 1 4 p3 [0:0] $end
$var wire 4 5 reg_data [3:0] $end
$var wire 1 6 p1 [0:0] $end
$var wire 1 7 p2 [0:0] $end
$var wire 1 8 ctmn_193 $end
$var wire 1 9 ctmn_158 $end
$var wire 1 : ctmn_150 $end
$var wire 1 ; ctmn_154 $end
$var wire 1 < ctmn_157 $end
$var wire 1 = ctmn_149 $end
$var wire 1 > N14 $end
$var wire 1 ? clk_clock_gate_reg_data_reg $end
$var wire 1 @ ctmn_153 $end
$var wire 1 A N12 $end
$var wire 1 B ctmn_194 $end
$var wire 1 C N8 $end
$var wire 1 D ctmn_172 $end
$var wire 1 E ctmn_180 $end
$var wire 1 F N13 $end
$var wire 1 G ctmn_178 $end
$var wire 1 H N9 $end
$var wire 1 I N10 $end
$var wire 1 J ctmn_155 $end
$var wire 1 K N11 $end
$var wire 1 L ctmn_151 $end
$var wire 1 M ctmn_159 $end
$var wire 1 N ctmn_185 $end
$var wire 1 O ctmn_186 $end
$var wire 1 P ctmn_187 $end
$var wire 1 Q ctmn_189 $end
$var wire 1 R ctmn_170 $end
$var wire 1 S ctmn_190 $end
$var wire 1 T ctmn_192 $end
$var wire 1 U ctmn_160 $end
$var wire 1 V ctmn_171 $end
$var wire 1 W N7 $end
$var wire 1 X ctmn_173 $end
$var wire 1 Y ctmn_181 $end
$var wire 1 Z ctmn_182 $end
$var wire 1 [ ctmn_183 $end
$var wire 1 \ ctmn_162 $end
$var wire 1 ] ctmn_184 $end
$var wire 1 ^ ctmn_191 $end
$var wire 1 _ ctmn_156 $end
$var wire 1 ` ctmn_167 $end
$var wire 1 a ctmn_163 $end
$var wire 1 b ctmn_166 $end
$var wire 1 c ctmn_169 $end
$var wire 1 d ctmn_188 $end
$var wire 1 e ctmn_168 $end
$var wire 1 f ctmn_164 $end
$var wire 1 g ctmn_177 $end
$var wire 1 h ctmn_174 $end
$var wire 1 i ctmn_175 $end
$var wire 1 j ctmn_176 $end
$var wire 1 k ctmn_152 $end
$var wire 1 l ctmn_161 $end
$var wire 1 m ctmn_165 $end
$var wire 1 n ctmn_179 $end

$scope module ctmi_205 $end
$var wire 1 o A1 $end
$var wire 1 8 A2 $end
$var wire 1 o B1 $end
$var wire 1 8 B2 $end
$var wire 1 p ZN $end
$var wire 1 q A $end
$var wire 1 r B $end
$upscope $end


$scope module ctmi_154 $end
$var wire 1 s A1 $end
$var wire 1 9 A2 $end
$var wire 1 t B1 $end
$var wire 1 9 B2 $end
$var wire 1 u ZN $end
$var wire 1 v A $end
$var wire 1 w B $end
$upscope $end


$scope module ctmi_155 $end
$var wire 1 : A1 $end
$var wire 1 ; A2 $end
$var wire 1 < A3 $end
$var wire 1 x ZN $end
$upscope $end


$scope module ctmi_156 $end
$var wire 1 4 A1 $end
$var wire 1 y A2 $end
$var wire 1 z A3 $end
$var wire 1 = A4 $end
$var wire 1 { ZN $end
$upscope $end


$scope module p2_reg[0]  $end
$var wire 1 | SI $end
$var wire 1 > D $end
$var wire 1 } SE $end
$var wire 1 ? CP $end
$var wire 1 , CDN $end
$var wire 1 ~ Q $end
$var reg 1 "! notifier $end
$var wire 1 "" CDN_i $end
$var wire 1 "# SDN $end
$var wire 1 "$ D_i $end
$var wire 1 "% Q_buf $end
$var wire 1 "& SD $end
$var wire 1 "' SI_check $end
$var wire 1 "( D_check $end
$var wire 1 ") SE1 $end
$var wire 1 "* SE_check $end
$var wire 1 "+ xSI_check $end
$var wire 1 ", xD_check $end
$var wire 1 "- xCDN_i $end
$upscope $end


$scope module ctmi_206 $end
$var wire 1 < A1 $end
$var wire 1 @ A2 $end
$var wire 1 : A3 $end
$var wire 1 ". ZN $end
$upscope $end


$scope module reg_data_reg[0]  $end
$var wire 1 "/ SI $end
$var wire 1 A D $end
$var wire 1 "0 SE $end
$var wire 1 ? CP $end
$var wire 1 , CDN $end
$var wire 1 "1 Q $end
$var wire 1 "2 QN $end
$var reg 1 "3 notifier $end
$var wire 1 "4 CDN_i $end
$var wire 1 "5 SDN $end
$var wire 1 "6 D_i $end
$var wire 1 "7 Q_buf $end
$var wire 1 "8 SD $end
$var wire 1 "9 SI_check $end
$var wire 1 ": D_check $end
$var wire 1 "; xSI_check $end
$var wire 1 "< xD_check $end
$var wire 1 "= xCDN_i $end
$upscope $end


$scope module ctmi_207 $end
$var wire 1 B A1 $end
$var wire 1 = A2 $end
$var wire 1 B B1 $end
$var wire 1 = B2 $end
$var wire 1 "> ZN $end
$var wire 1 "? A $end
$var wire 1 "@ B $end
$upscope $end


$scope module p3_reg[0]  $end
$var wire 1 "A SI $end
$var wire 1 C D $end
$var wire 1 "B SE $end
$var wire 1 ? CP $end
$var wire 1 , CDN $end
$var wire 1 "C Q $end
$var reg 1 "D notifier $end
$var wire 1 "E CDN_i $end
$var wire 1 "F SDN $end
$var wire 1 "G D_i $end
$var wire 1 "H Q_buf $end
$var wire 1 "I SD $end
$var wire 1 "J SI_check $end
$var wire 1 "K D_check $end
$var wire 1 "L SE1 $end
$var wire 1 "M SE_check $end
$var wire 1 "N xSI_check $end
$var wire 1 "O xD_check $end
$var wire 1 "P xCDN_i $end
$upscope $end


$scope module ctmi_210 $end
$var wire 1 D A1 $end
$var wire 1 E A2 $end
$var wire 1 D B1 $end
$var wire 1 "> B2 $end
$var wire 1 A ZN $end
$var wire 1 "Q A $end
$var wire 1 "R B $end
$upscope $end


$scope module p1_reg[0]  $end
$var wire 1 "S SI $end
$var wire 1 F D $end
$var wire 1 "T SE $end
$var wire 1 ? CP $end
$var wire 1 , CDN $end
$var wire 1 "U Q $end
$var reg 1 "V notifier $end
$var wire 1 "W CDN_i $end
$var wire 1 "X SDN $end
$var wire 1 "Y D_i $end
$var wire 1 "Z Q_buf $end
$var wire 1 "[ SD $end
$var wire 1 "\ SI_check $end
$var wire 1 "] D_check $end
$var wire 1 "^ SE1 $end
$var wire 1 "_ SE_check $end
$var wire 1 "` xSI_check $end
$var wire 1 "a xD_check $end
$var wire 1 "b xCDN_i $end
$upscope $end


$scope module ctmi_204 $end
$var wire 1 D A1 $end
$var wire 1 G A2 $end
$var wire 1 D B1 $end
$var wire 1 "c B2 $end
$var wire 1 H ZN $end
$var wire 1 "d A $end
$var wire 1 "e B $end
$upscope $end


$scope module reg_data_reg[2]  $end
$var wire 1 "f SI $end
$var wire 1 I D $end
$var wire 1 "g SE $end
$var wire 1 ? CP $end
$var wire 1 , CDN $end
$var wire 1 "h Q $end
$var wire 1 "i QN $end
$var reg 1 "j notifier $end
$var wire 1 "k CDN_i $end
$var wire 1 "l SDN $end
$var wire 1 "m D_i $end
$var wire 1 "n Q_buf $end
$var wire 1 "o SD $end
$var wire 1 "p SI_check $end
$var wire 1 "q D_check $end
$var wire 1 "r xSI_check $end
$var wire 1 "s xD_check $end
$var wire 1 "t xCDN_i $end
$upscope $end


$scope module reg_data_reg[1]  $end
$var wire 1 "u SI $end
$var wire 1 K D $end
$var wire 1 "v SE $end
$var wire 1 ? CP $end
$var wire 1 , CDN $end
$var wire 1 "w Q $end
$var wire 1 "x QN $end
$var reg 1 "y notifier $end
$var wire 1 "z CDN_i $end
$var wire 1 "{ SDN $end
$var wire 1 "| D_i $end
$var wire 1 "} Q_buf $end
$var wire 1 "~ SD $end
$var wire 1 #! SI_check $end
$var wire 1 #" D_check $end
$var wire 1 ## xSI_check $end
$var wire 1 #$ xD_check $end
$var wire 1 #% xCDN_i $end
$upscope $end


$scope module ctmi_208 $end
$var wire 1 M A1 $end
$var wire 1 ; A2 $end
$var wire 1 B ZN $end
$upscope $end


$scope module ctmi_209 $end
$var wire 1 - A1 $end
$var wire 1 N A2 $end
$var wire 1 D B1 $end
$var wire 1 #& B2 $end
$var wire 1 #' Z $end
$var wire 1 #( A $end
$var wire 1 #) B $end
$upscope $end


$scope module ctmi_193 $end
$var wire 1 O I0 $end
$var wire 1 P I1 $end
$var wire 1 Q I2 $end
$var wire 1 G S0 $end
$var wire 1 D S1 $end
$var wire 1 #* ZN $end
$var wire 1 #+ I0_out $end
$var wire 1 #, I1_out $end
$upscope $end


$scope module ctmi_200 $end
$var wire 1 P A1 $end
$var wire 1 R A2 $end
$var wire 1 O B1 $end
$var wire 1 S B2 $end
$var wire 1 - C1 $end
$var wire 1 T C2 $end
$var wire 1 C ZN $end
$var wire 1 #- A $end
$var wire 1 #. B $end
$var wire 1 #/ C $end
$upscope $end


$scope module ctmi_164 $end
$var wire 1 U A1 $end
$var wire 1 J A2 $end
$var wire 1 U B1 $end
$var wire 1 J B2 $end
$var wire 1 #0 ZN $end
$var wire 1 #1 A $end
$var wire 1 #2 B $end
$upscope $end


$scope module ctmi_167 $end
$var wire 1 - A1 $end
$var wire 1 #3 A2 $end
$var wire 1 R B $end
$var wire 1 #4 Z $end
$var wire 1 #5 A $end
$upscope $end


$scope module ctmi_178 $end
$var wire 1 V A1 $end
$var wire 1 < A2 $end
$var wire 1 D A3 $end
$var wire 1 #6 ZN $end
$upscope $end


$scope module ctmi_179 $end
$var wire 1 @ A1 $end
$var wire 1 : A2 $end
$var wire 1 V ZN $end
$upscope $end


$scope module ctmi_181 $end
$var wire 1 X A1 $end
$var wire 1 D A2 $end
$var wire 1 Y B1 $end
$var wire 1 Z B2 $end
$var wire 1 [ C $end
$var wire 1 #7 ZN $end
$var wire 1 #8 A $end
$var wire 1 #9 B $end
$upscope $end


$scope module ctmi_201 $end
$var wire 1 Z I $end
$var wire 1 #: ZN $end
$upscope $end


$scope module ctmi_194 $end
$var wire 1 E A1 $end
$var wire 1 N A2 $end
$var wire 1 E B1 $end
$var wire 1 N B2 $end
$var wire 1 O ZN $end
$var wire 1 #; A $end
$var wire 1 #< B $end
$upscope $end


$scope module ctmi_195 $end
$var wire 1 #= A1 $end
$var wire 1 \ A2 $end
$var wire 1 L A3 $end
$var wire 1 ] B $end
$var wire 1 #> ZN $end
$var wire 1 #? A $end
$upscope $end


$scope module ctmi_202 $end
$var wire 1 4 A1 $end
$var wire 1 ^ A2 $end
$var wire 1 4 B1 $end
$var wire 1 ^ B2 $end
$var wire 1 T ZN $end
$var wire 1 #@ A $end
$var wire 1 #A B $end
$upscope $end


$scope module ctmi_182 $end
$var wire 1 6 A1 $end
$var wire 1 V A2 $end
$var wire 1 6 B1 $end
$var wire 1 V B2 $end
$var wire 1 X ZN $end
$var wire 1 #B A $end
$var wire 1 #C B $end
$upscope $end


$scope module ctmi_183 $end
$var wire 1 G A1 $end
$var wire 1 E A2 $end
$var wire 1 G B1 $end
$var wire 1 E B2 $end
$var wire 1 #D ZN $end
$var wire 1 #E A $end
$var wire 1 #F B $end
$upscope $end


$scope module ctmi_203 $end
$var wire 1 @ A1 $end
$var wire 1 _ A2 $end
$var wire 1 ^ ZN $end
$upscope $end


$scope module ctmi_196 $end
$var wire 1 ` A1 $end
$var wire 1 #G A2 $end
$var wire 1 #H B1 $end
$var wire 1 a B2 $end
$var wire 1 b C1 $end
$var wire 1 #I C2 $end
$var wire 1 ] ZN $end
$var wire 1 #J A $end
$var wire 1 #K B $end
$var wire 1 #L C $end
$upscope $end


$scope module ctmi_197 $end
$var wire 1 O I $end
$var wire 1 #M ZN $end
$upscope $end


$scope module ctmi_165 $end
$var wire 1 @ A1 $end
$var wire 1 M A2 $end
$var wire 1 U ZN $end
$upscope $end


$scope module ctmi_168 $end
$var wire 1 - A1 $end
$var wire 1 c A2 $end
$var wire 1 #N ZN $end
$upscope $end


$scope module ctmi_198 $end
$var wire 1 7 A1 $end
$var wire 1 d A2 $end
$var wire 1 7 B1 $end
$var wire 1 d B2 $end
$var wire 1 Q ZN $end
$var wire 1 #O A $end
$var wire 1 #P B $end
$upscope $end


$scope module ctmi_166 $end
$var wire 1 _ A1 $end
$var wire 1 : A2 $end
$var wire 1 #Q ZN $end
$upscope $end


$scope module ctmi_169 $end
$var wire 1 J A1 $end
$var wire 1 #R A2 $end
$var wire 1 \ A3 $end
$var wire 1 e B $end
$var wire 1 #S Z $end
$var wire 1 #T A $end
$upscope $end


$scope module ctmi_184 $end
$var wire 1 f A1 $end
$var wire 1 #U A2 $end
$var wire 1 g B $end
$var wire 1 #V ZN $end
$var wire 1 #W A $end
$upscope $end


$scope module ctmi_185 $end
$var wire 1 h A1 $end
$var wire 1 i A2 $end
$var wire 1 ` B1 $end
$var wire 1 J B2 $end
$var wire 1 j C1 $end
$var wire 1 #X C2 $end
$var wire 1 g ZN $end
$var wire 1 #Y A $end
$var wire 1 #Z B $end
$var wire 1 #[ C $end
$upscope $end


$scope module ctmi_152 $end
$var wire 1 #X A1 $end
$var wire 1 = A2 $end
$var wire 1 #X B1 $end
$var wire 1 #\ B2 $end
$var wire 1 2 ZN $end
$var wire 1 #] A $end
$var wire 1 #^ B $end
$upscope $end


$scope module ctmi_157 $end
$var wire 1 L A1 $end
$var wire 1 7 A2 $end
$var wire 1 k A3 $end
$var wire 1 @ ZN $end
$upscope $end


$scope module ctmi_159 $end
$var wire 1 #\ A1 $end
$var wire 1 = A2 $end
$var wire 1 #\ B1 $end
$var wire 1 = B2 $end
$var wire 1 k ZN $end
$var wire 1 #_ A $end
$var wire 1 #` B $end
$upscope $end


$scope module ctmi_160 $end
$var wire 1 @ I $end
$var wire 1 #a ZN $end
$upscope $end


$scope module ctmi_161 $end
$var wire 1 J A1 $end
$var wire 1 6 A2 $end
$var wire 1 k A3 $end
$var wire 1 _ ZN $end
$upscope $end


$scope module ctmi_163 $end
$var wire 1 _ I $end
$var wire 1 #b ZN $end
$upscope $end


$scope module ctmi_170 $end
$var wire 1 l A1 $end
$var wire 1 / A2 $end
$var wire 1 \ ZN $end
$upscope $end


$scope module ctmi_171 $end
$var wire 1 #c I $end
$var wire 1 #d ZN $end
$upscope $end


$scope module ctmi_172 $end
$var wire 1 b A1 $end
$var wire 1 #\ A2 $end
$var wire 1 o B1 $end
$var wire 1 ` B2 $end
$var wire 1 a C1 $end
$var wire 1 #e C2 $end
$var wire 1 e ZN $end
$var wire 1 #f A $end
$var wire 1 #g B $end
$var wire 1 #h C $end
$upscope $end


$scope module ctmi_173 $end
$var wire 1 #X A1 $end
$var wire 1 f A2 $end
$var wire 1 m ZN $end
$upscope $end


$scope module ctmi_174 $end
$var wire 1 #i A1 $end
$var wire 1 / A2 $end
$var wire 1 #j ZN $end
$upscope $end


$scope module ctmi_175 $end
$var wire 1 a I $end
$var wire 1 #k ZN $end
$upscope $end


$scope module ctmi_176 $end
$var wire 1 m I $end
$var wire 1 #l ZN $end
$upscope $end


$scope module ctmi_177 $end
$var wire 1 #m A1 $end
$var wire 1 l A2 $end
$var wire 1 #n ZN $end
$upscope $end


$scope module ctmi_180 $end
$var wire 1 - I $end
$var wire 1 #o ZN $end
$upscope $end


$scope module ctmi_186 $end
$var wire 1 #p A1 $end
$var wire 1 #q A2 $end
$var wire 1 #r ZN $end
$upscope $end


$scope module ctmi_187 $end
$var wire 1 \ I $end
$var wire 1 #s ZN $end
$upscope $end


$scope module ctmi_188 $end
$var wire 1 0 A1 $end
$var wire 1 l A2 $end
$var wire 1 #t ZN $end
$upscope $end


$scope module ctmi_189 $end
$var wire 1 n A1 $end
$var wire 1 #u A2 $end
$var wire 1 #v B1 $end
$var wire 1 m B2 $end
$var wire 1 f C1 $end
$var wire 1 #w C2 $end
$var wire 1 #x ZN $end
$var wire 1 #y A $end
$var wire 1 #z B $end
$var wire 1 #{ C $end
$upscope $end


$scope module ctmi_190 $end
$var wire 1 0 A1 $end
$var wire 1 l A2 $end
$var wire 1 #| B1 $end
$var wire 1 \ B2 $end
$var wire 1 #} Z $end
$var wire 1 #~ A $end
$var wire 1 $! B $end
$upscope $end


$scope module ctmi_191 $end
$var wire 1 D A1 $end
$var wire 1 c A2 $end
$var wire 1 Z ZN $end
$upscope $end


$scope module ctmi_192 $end
$var wire 1 R A1 $end
$var wire 1 Y A2 $end
$var wire 1 [ ZN $end
$upscope $end


$scope module ctmi_199 $end
$var wire 1 _ A1 $end
$var wire 1 : A2 $end
$var wire 1 d ZN $end
$upscope $end


$scope module reg_data_reg[3]  $end
$var wire 1 $" SI $end
$var wire 1 H D $end
$var wire 1 $# SE $end
$var wire 1 ? CP $end
$var wire 1 , CDN $end
$var wire 1 $$ Q $end
$var reg 1 $% notifier $end
$var wire 1 $& CDN_i $end
$var wire 1 $' SDN $end
$var wire 1 $( D_i $end
$var wire 1 $) Q_buf $end
$var wire 1 $* SD $end
$var wire 1 $+ SI_check $end
$var wire 1 $, D_check $end
$var wire 1 $- SE1 $end
$var wire 1 $. SE_check $end
$var wire 1 $/ xSI_check $end
$var wire 1 $0 xD_check $end
$var wire 1 $1 xCDN_i $end
$upscope $end


$scope module clock_gate_reg_data_reg $end
$var wire 1 $2 TE $end
$var wire 1 W E $end
$var wire 1 + CP $end
$var wire 1 $3 Q $end
$var reg 1 $4 notifier $end
$var wire 1 $5 CDN $end
$var wire 1 $6 SDN $end
$var wire 1 $7 D_i $end
$var wire 1 $8 CPB $end
$var wire 1 $9 Q_buf $end
$var wire 1 $: E_bar_b $end
$var wire 1 $; TE_bar_b $end
$var wire 1 $< E_bar $end
$var wire 1 $= TE_bar $end
$upscope $end

$upscope $end

$upscope $end

$enddefinitions $end

#0
$dumpvars
0v
0#i
0#q
0z
1w
0t
0#&
0#{
0#w
1$5
0""
0"(
1"$
1$<
1$:
1#+
0#,
0I
0K
1F
1>
0W
0"%
1"&
1"#
0}
1")
0"*
0|
0"'
0$2
1$=
1$;
0#'
0!
0$7
1$6
x$4
0s
0u
0x
0y
0#5
0#3
0#4
0#T
0#R
0#m
0#6
0#8
0#9
1#7
1#E
0#F
0#W
0#U
0#p
0#y
0#u
0#z
0#v
0#~
0$!
0#|
0#}
1#*
0#?
0#=
0#(
0#)
09
0n
0,
00
0#
0%
x"!
0"W
0"]
1"Y
0"Z
1"[
1"X
0"T
1"^
0"_
0"S
0"\
x"V
0"b
0"a
0"`
0"E
0"K
1"G
0"H
1"I
1"F
0"B
1"L
0"M
0"A
0"J
x"D
0"P
0"O
0"N
0"4
0":
0"6
0"1
0"7
1"8
1"5
0"0
0"/
0"9
x"3
0"=
0"<
0";
0"z
0#"
0"|
0"w
0"}
1"~
1"{
0"v
0"u
0#!
x"y
0#%
0#$
0##
0"k
0"q
0"m
0"h
0"n
1"o
1"l
0"g
0"f
0"p
x"j
0"t
0"s
0"r
0$&
0$,
0$(
0$$
0$)
1$*
1$'
0$#
0$-
0$.
0$"
0$+
x$%
0$1
0$0
0$/
0"
0&
0(
0"-
0",
0"+
b00 $
b0000 '
b0000 )
bxxxx *
1q
1r
1"?
1"@
1"Q
1"R
1"d
1"e
1#-
1#.
0#/
1#1
1#2
1#;
1#<
1#@
1#A
1#B
1#C
1#J
1#K
0#L
1#O
1#P
1#Y
1#Z
1#[
1#]
1#^
1#_
1#`
0#f
1#g
1#h
b0000 3
0#X
0#H
0#e
1#:
1S
1#M
1P
1#a
1;
1#b
1<
1#d
1l
0#k
0f
0#l
0b
1#o
1D
1#s
1i
1$8
0~
07
0"C
04
0"U
06
1"2
1=
1"i
1J
1"x
1L
1#N
1R
1#Q
1M
1#j
1a
1#n
1`
1#r
1h
1#t
1j
0#D
0Y
1".
18
0{
0:
0#>
0N
1#S
1c
1#V
1G
1#x
1E
0$3
0?
0B
1C
1V
1^
1]
0U
0g
0@
0_
0\
1e
1m
0Z
0[
1d
0#c
0$9
b0000 5
b0000 1
b00 .
0A
0H
0O
0-
0T
0X
0Q
02
0k
0/
0+
0o
0p
0"c
0#0
0#G
0#I
0#\
0">
$end
#5000
1!
1+
0$8
1"
1,
1"z
1#"
1#$
1#%
1"k
1"q
1"s
1"t
1"4
1":
1"<
1"=
1$&
1$,
1$0
1$1
1"W
1"]
1"a
1"b
1"E
1"K
1"O
1"P
1""
1"(
1",
1"-
1"_
1"M
1"*
1#
1-
1#5
1#/
1&
10
1#~
0#t
0j
0#[
1#}
1n
0C
0"G
0"L
0#N
0R
1#4
1I
1"m
0#o
0D
0"M
1#,
0#*
0>
0"$
0")
1#6
1W
0$:
0$<
1$7
1[
0#4
0I
0"m
1g
0"*
0#V
0G
0#+
0#E
0"d
0#7
0F
0"Y
0"^
0#,
0"_
1#*
1>
1"$
1")
1H
1$(
1$-
1#D
1Y
1"*
1$.
0[
1#7
1F
1"Y
1"^
1"_
#10000
0!
0+
1$8
1$9
#15000
1!
1+
0$8
1$3
1?
1"%
1"Z
1$)
1$$
1#\
1t
0w
1s
1#p
0#`
1#f
1"U
16
0#C
1~
17
0#P
b1000 5
1@
1Q
1_
1X
0e
1k
1u
1"c
b1000 3
b1000 )
0_
0@
0#S
0c
0d
1#P
0#b
0<
0^
0#@
0V
1#C
0#a
0;
1x
19
1v
0X
1T
0Q
1Z
1#9
1#N
1R
1^
1#@
1V
0#C
1#a
1;
1d
0#P
1#b
1<
1Q
0x
09
0v
1X
0T
1#4
1I
1"m
0#7
0F
0"Y
0"^
0#:
0S
0#.
0u
0"c
b0000 3
b0000 )
0"_
1C
1"G
1"L
1u
1"c
b1000 3
b1000 )
1"M
#20000
0!
0+
1$8
0$3
0?
#25000
1!
1+
0$8
1$3
1?
1"H
0"Z
1"n
1"h
1#I
1z
1#L
0"i
0J
0#1
0"U
06
1#C
1"C
14
0#A
b1100 5
1T
0X
1#0
1#3
0]
b1100 3
b1100 )
1#>
1N
1#(
0#<
1O
1#+
1#.
1#'
1K
1"|
1#,
0#*
0>
0"$
0")
0C
0"G
0"L
0#M
0P
0"*
0"M
#30000
0!
0+
1$8
0$3
0?
#35000
1!
1+
0$8
1$3
1?
0"%
0"H
1"}
1"w
1o
1y
1#v
1#z
0r
0"x
0L
0"C
04
1#A
0~
07
1#P
b1110 5
0Q
0T
1p
1#&
0#x
0E
1#F
0"Q
1#<
b1110 3
b1110 )
0O
0#+
0#.
1A
1"6
0#D
0Y
0#9
0#,
1#*
1>
1"$
1")
1#7
1F
1"Y
1"^
1C
1"G
1"L
1#M
1P
1"*
1"_
1"M
0#
0-
0#(
0#/
0#'
0K
0"|
1#o
1D
1#)
1"Q
1"d
0"e
0Z
0A
0"6
0#6
0W
1$:
1$<
0$7
1#'
1K
1"|
1#:
1S
1#.
#40000
0!
0+
1$8
0$9
0$3
0?
#45000
1!
1+
0$8
#50000
0!
0+
1$8
#55000
1!
1+
0$8
#60000
0!
0+
1$8
#65000
1!
1+
0$8
1#
1-
1#(
1#/
0&
00
0#~
1#t
1j
1#[
0#}
0n
0C
0"G
0"L
0#o
0D
0#)
0"Q
0"d
1"e
0"M
1Z
1A
1"6
1#6
1W
0$:
0$<
1$7
0g
1#V
1G
1#+
0#F
1"d
0#:
0S
0#.
1#,
0#*
0>
0"$
0")
1C
1"G
1"L
0H
0$(
0$-
1#D
1Y
1#9
0"*
1"M
0$.
0#7
0F
0"Y
0"^
0"_
#70000
0!
0+
1$8
1$9
#75000
1!
1+
0$8
1$3
1?
1"H
0$)
1"7
1"1
1#G
1#|
0"2
0=
0"?
0#]
1#`
0$$
0#\
0t
1w
0s
0#p
0#_
0#f
1"C
14
0#A
b0111 5
1T
1e
0u
0"c
12
1(
1">
b0111 3
b0111 )
1#S
1c
0Z
0#9
0#N
0R
0#4
0I
0"m
1#7
1F
1"Y
1"^
1#:
1S
1#.
1"_
0C
0"G
0"L
0"M
#80000
0!
0+
1$8
0$3
0?
#85000
1!
1+
0$8
1$3
1?
0"H
1"Z
0"n
0"h
0#I
0z
0#L
1"i
1J
1#1
1"U
16
0#C
0"C
04
1#A
b0011 5
0T
1X
0#0
0#3
1]
b0011 3
b0011 )
0#>
0N
0#(
0#;
1O
0#'
0K
0"|
0#M
0P
0#+
0#-
0#,
1#*
1>
1"$
1")
1C
1"G
1"L
1"*
1"M
#90000
0!
0+
1$8
0$3
0?
#95000
1!
1+
0$8
1$3
1?
1"%
1"H
0"}
0"w
0o
0y
0#v
0#z
1r
1"x
1L
1"C
14
0#A
1~
17
0#P
b0001 5
1Q
1T
0p
0#&
1#x
1E
1#E
1"Q
1#;
b0001 3
b0001 )
0O
0A
0"6
0#D
0Y
1[
1#M
1P
1#+
1#-
1#,
0#*
0>
0"$
0")
0C
0"G
0"L
0#7
0F
0"Y
0"^
0"*
0"M
0"_
#100000
0!
0+
1$8
0$3
0?
#105000
1!
1+
0$8
b01 $
b01 .
1#X
1#u
1#R
1#=
1#q
1#m
1#]
1&
10
1#~
0#t
0j
1#}
1n
1#y
0m
02
0(
0#n
0`
0#g
1$3
1?
0"%
0"H
0"Z
0"7
0"1
0#G
0#|
0#J
1"2
1=
1"?
1#_
0"U
06
1#C
0"C
04
1#A
0~
07
1#P
1#l
1b
1#L
1#f
0#x
0E
0#E
0"Q
0#;
b0000 5
1O
1A
1"6
1#D
1Y
1@
0Q
0T
1_
0X
0k
0">
b0000 3
b0000 )
0_
0@
0d
0#O
0#b
0<
0^
0#@
0V
0#B
0#a
0;
0[
0#M
0P
0#+
0#-
0#,
1#*
1>
1"$
1")
1C
1"G
1"L
1#7
1F
1"Y
1"^
1x
19
0w
1X
1T
1Q
1^
1#@
1V
1#B
1#a
1;
1d
1#O
1#b
1<
1"*
1"M
1"_
0Q
0x
09
1w
0X
0T
1u
1"c
b1000 3
b1000 )
0u
0"c
b0000 3
b0000 )
#110000
0!
0+
1$8
0$3
0?
#115000
1!
1+
0$8
0&
00
0#~
1#t
1j
0#}
0n
0#y
1$3
1?
1"%
1"H
1"Z
1"7
1"1
1#G
1#|
1#J
0"2
0=
0"?
0#_
1"U
16
0#C
1"C
14
0#A
1~
17
0#P
1#x
1E
1#E
1"Q
1#;
b0001 5
0O
0A
0"6
0#D
0Y
1@
1Q
1T
1_
1X
1k
1">
0]
b0001 3
b0001 )
1#>
1N
1#(
0#<
0_
0@
0d
1#P
0#b
0<
0^
1#A
0V
1#C
0#a
0;
1[
1#M
1P
1#+
1#-
1#,
0#*
0>
0"$
0")
0C
0"G
0"L
0#7
0F
0"Y
0"^
1x
19
0w
0X
0T
0Q
1^
0#A
1V
0#C
1#a
1;
1d
0#P
1#b
1<
1O
1#'
1K
1"|
0"*
0"M
0"_
0#M
0P
0#+
0#-
1Q
0x
09
1w
1X
1T
1u
1"c
b1001 3
b1001 )
0#,
1#*
1>
1"$
1")
0u
0"c
1C
1"G
1"L
b0001 3
b0001 )
1"*
1"M
#120000
0!
0+
1$8
0$3
0?
#125000
1!
1+
0$8
0#
0-
0#5
0#(
1#N
1R
1#-
0#'
0K
0"|
1#o
1D
1#8
0"R
1$3
1?
1#,
0"Z
0"7
0"1
0#G
0#|
0#J
1"2
1=
1"?
1#_
0"U
06
1#C
0#*
0>
0"$
0")
1A
1"6
0#6
0W
1$:
1$<
0$7
0[
0C
0"G
0"L
b0000 5
0"*
0"M
1_
0X
0#8
0k
0">
1"R
1{
1:
1]
b0000 3
b0000 )
0#>
0N
1#<
0V
0#B
0#Q
0M
0A
0"6
0_
1@
1#7
1F
1"Y
1"^
0d
1#P
0^
1#A
0#b
0<
1"_
0T
0#/
0Q
0#a
0;
1#Q
1M
1#b
1<
1X
1#8
1#6
1W
0$:
0$<
1$7
0O
0#,
1#*
1>
1"$
1")
1#M
1P
1#+
0#7
0F
0"Y
0"^
0".
08
0q
1C
1"G
1"L
1"*
0"_
1"M
1p
1#&
1#)
b0010 3
b0010 )
1#'
1K
1"|
#130000
0!
0+
1$8
0$3
0?
#135000
1!
1+
0$8
1$3
1?
1"}
1"w
1o
1y
1#v
1q
1#g
0"x
0L
b0010 5
0@
0e
0p
0#&
0#)
0{
0:
b0000 3
b0000 )
1d
0#P
1V
1#B
0#'
0K
0"|
0#S
0c
1^
0#A
1".
18
0r
1#a
1;
1p
1#&
1#)
1T
1#/
0X
0#8
0#6
0W
1$:
1$<
0$7
1Q
b0010 3
b0010 )
1#,
0#*
0>
0"$
0")
1#7
1F
1"Y
1"^
0C
0"G
0"L
1#'
1K
1"|
0"*
1"_
0"M
#140000
0!
0+
1$8
0$9
0$3
0?
#145000
1!
1+
0$8
#150000
0!
0+
1$8
#155000
1!
1+
0$8
#160000
0!
0+
1$8
#165000
1!
1+
0$8
#170000
0!
0+
1$8
#175000
1!
1+
0$8
#180000
0!
0+
1$8
#185000
1!
1+
0$8
1#
1-
1#5
1#4
1I
1"m
0#o
0D
0#)
1Z
1#6
1W
0$:
0$<
1$7
0#'
0K
0"|
0#:
0S
0#.
1C
1"G
1"L
1"M
#190000
0!
0+
1$8
1$9
