versiones_finales/semana14/Contador_Hamming/TSMC_128_v2/FLOW/common/rtl/sverilog/waveform.vcd
$date
	Wed May 28 20:26:03 2025
$end

$version
	Synopsys VCS version R-2020.12-SP2_Full64
$end

$timescale
	1ps
$end

$comment Csum: 1 6595e5a54ac14293 $end


$scope module tb_top $end
$var reg 1 ! clk $end
$var reg 1 " rst $end
$var reg 1 # enable $end
$var wire 16 $ counter [15:0] $end

$scope module dut $end
$var reg 1 % clk $end
$var reg 1 & rst $end
$var reg 1 ' enable $end
$var reg 16 ( counter [15:0] $end
$var reg 12 ) parity_stored [11:0] $end
$var reg 1 * busy $end
$var wire 1 + error_detected $end
$var reg 12 , syndrome [11:0] $end
$var reg 16 - corrected_counter [15:0] $end
$var reg 12 . corrected_parity [11:0] $end
$var reg 1 / enable_last $end

$scope module counter_and_parity $end
$var reg 12 0 parity_stored [11:0] $end
$var reg 16 1 count_reg [15:0] $end
$var wire 1 2 clk $end
$var wire 1 3 rst $end
$var wire 1 4 enable $end
$var wire 16 5 corrected_counter [15:0] $end
$var wire 12 6 corrected_parity [11:0] $end
$var reg 16 7 counter [15:0] $end
$var reg 1 8 busy $end
$var reg 1 9 error_detected $end
$var reg 1 : enable_last $end
$var reg 16 ; count_neg [15:0] $end
$var reg 16 < counter_stored [15:0] $end
$var reg 1 = rst_done $end
$var integer 32 > i $end
$upscope $end


$scope module syndrome_inst $end
$var wire 1 ? clk $end
$var wire 1 @ enable $end
$var wire 12 A parity_stored [11:0] $end
$var wire 16 B counter_reg [15:0] $end
$var reg 12 C syndrome [11:0] $end
$var wire 1 D busy $end
$var reg 16 E corrected_counter [15:0] $end
$var wire 1 + error_detected $end
$var reg 12 F corrected_parity [11:0] $end
$var wire 1 G enable_last $end
$var wire 1 H rst $end
$var reg 1 I error_detected_parity $end
$var integer 32 J i $end

$scope begin unnamed$$_0 $end
$upscope $end


$scope begin unnamed$$_1 $end
$upscope $end

$upscope $end

$upscope $end

$upscope $end

$enddefinitions $end

#0
$dumpvars
0*
0!
08
04
0:
09
13
0'
1&
0#
0/
0+
0I
1"
0=
0D
0@
0G
1H
b000000000000 0
b0000000000000000 1
b0000000000000000 -
b000000000000 .
b0000000000000000 ;
b0000000000000000 $
b0000000000000000 5
b000000000000 6
b0000000000000000 7
b0000000000000000 B
b0000000000000000 <
b0000000000000000 (
bxxxxxxxxxxxxxxxxxxxxxxxxxxxxxxxx >
b000000000000 )
b000000000000 ,
b0000000000000000 E
b000000000000 F
b00000000000000000000000000000100 J
b000000000000 A
b000000000000 C
02
0?
0%
$end
#5000
1!
1%
12
1?
0"
0&
0H
03
1#
1'
1@
14
#10000
0!
0%
02
0?
#15000
1!
1%
12
1?
1=
b0000000000000001 1
b0000000000000001 7
b0000000000000001 (
b0000000000000001 $
b0000000000000001 B
#20000
0!
0%
02
0?
b0000000000000001 ;
#25000
1!
1%
12
1?
1:
1/
1G
b0000000000000010 1
b0000000000000010 7
b0000000000000010 (
b0000000000000010 $
b0000000000000010 B
#30000
0!
0%
02
0?
b0000000000000010 ;
#35000
1!
1%
12
1?
b0000000000000011 1
b0000000000000011 7
b0000000000000011 (
b0000000000000011 $
b0000000000000011 B
#40000
0!
0%
02
0?
b0000000000000011 ;
#45000
1!
1%
12
1?
b0000000000000100 1
b0000000000000100 7
b0000000000000100 (
b0000000000000100 $
b0000000000000100 B
#50000
0!
0%
02
0?
b0000000000000100 ;
#55000
1!
1%
12
1?
b0000000000000101 1
b0000000000000101 7
b0000000000000101 (
b0000000000000101 $
b0000000000000101 B
#60000
0!
0%
02
0?
b0000000000000101 ;
#65000
1!
1%
12
1?
b0000000000000110 1
b0000000000000110 7
b0000000000000110 (
b0000000000000110 $
b0000000000000110 B
#70000
0!
0%
02
0?
b0000000000000110 ;
#75000
1!
1%
12
1?
b0000000000000111 1
b0000000000000111 7
b0000000000000111 (
b0000000000000111 $
b0000000000000111 B
#80000
0!
0%
02
0?
b0000000000000111 ;
#85000
1!
1%
12
1?
b0000000000001000 1
b0000000000001000 7
b0000000000001000 (
b0000000000001000 $
b0000000000001000 B
#90000
0!
0%
02
0?
b0000000000001000 ;
#95000
1!
1%
12
1?
b0000000000001001 1
b0000000000001001 7
b0000000000001001 (
b0000000000001001 $
b0000000000001001 B
#100000
0!
0%
02
0?
b0000000000001001 ;
#105000
1!
1%
12
1?
b0000000000001010 1
b0000000000001010 7
b0000000000001010 (
b0000000000001010 $
b0000000000001010 B
#110000
0!
0%
02
0?
b0000000000001010 ;
#115000
1!
1%
12
1?
b0000000000001011 1
b0000000000001011 7
b0000000000001011 (
b0000000000001011 $
b0000000000001011 B
#120000
0!
0%
02
0?
b0000000000001011 ;
#125000
1!
1%
12
1?
b0000000000001100 1
b0000000000001100 7
b0000000000001100 (
b0000000000001100 $
b0000000000001100 B
#130000
0!
0%
02
0?
b0000000000001100 ;
#135000
1!
1%
12
1?
b0000000000001101 1
b0000000000001101 7
b0000000000001101 (
b0000000000001101 $
b0000000000001101 B
#140000
0!
0%
02
0?
b0000000000001101 ;
#145000
1!
1%
12
1?
b0000000000001110 1
b0000000000001110 7
b0000000000001110 (
b0000000000001110 $
b0000000000001110 B
#150000
0!
0%
02
0?
b0000000000001110 ;
#155000
1!
1%
12
1?
b0000000000001111 1
b0000000000001111 7
b0000000000001111 (
b0000000000001111 $
b0000000000001111 B
#160000
0!
0%
02
0?
b0000000000001111 ;
#165000
1!
1%
12
1?
b0000000000010000 1
b0000000000010000 7
b0000000000010000 (
b0000000000010000 $
b0000000000010000 B
#170000
0!
0%
02
0?
b0000000000010000 ;
#175000
1!
1%
12
1?
b0000000000010001 1
b0000000000010001 7
b0000000000010001 (
b0000000000010001 $
b0000000000010001 B
#180000
0!
0%
02
0?
b0000000000010001 ;
#185000
1!
1%
12
1?
b0000000000010010 1
b0000000000010010 7
b0000000000010010 (
b0000000000010010 $
b0000000000010010 B
#190000
0!
0%
02
0?
b0000000000010010 ;
#195000
1!
1%
12
1?
b0000000000010011 1
b0000000000010011 7
b0000000000010011 (
b0000000000010011 $
b0000000000010011 B
#200000
0!
0%
02
0?
b0000000000010011 ;
#205000
1!
1%
12
1?
b0000000000010100 1
b0000000000010100 7
b0000000000010100 (
b0000000000010100 $
b0000000000010100 B
#210000
0!
0%
02
0?
b0000000000010100 ;
#215000
1!
1%
12
1?
b0000000000010101 1
b0000000000010101 7
b0000000000010101 (
b0000000000010101 $
b0000000000010101 B
#220000
0!
0%
02
0?
b0000000000010101 ;
#225000
1!
1%
12
1?
b0000000000010110 1
b0000000000010110 7
b0000000000010110 (
b0000000000010110 $
b0000000000010110 B
#230000
0!
0%
02
0?
b0000000000010110 ;
#235000
1!
1%
12
1?
b0000000000010111 1
b0000000000010111 7
b0000000000010111 (
b0000000000010111 $
b0000000000010111 B
#240000
0!
0%
02
0?
b0000000000010111 ;
#245000
1!
1%
12
1?
b0000000000011000 1
b0000000000011000 7
b0000000000011000 (
b0000000000011000 $
b0000000000011000 B
#250000
0!
0%
02
0?
b0000000000011000 ;
#255000
1!
1%
12
1?
b0000000000011001 1
b0000000000011001 7
b0000000000011001 (
b0000000000011001 $
b0000000000011001 B
#260000
0!
0%
02
0?
b0000000000011001 ;
#265000
1!
1%
12
1?
b0000000000011010 1
b0000000000011010 7
b0000000000011010 (
b0000000000011010 $
b0000000000011010 B
#270000
0!
0%
02
0?
b0000000000011010 ;
#275000
1!
1%
12
1?
b0000000000011011 1
b0000000000011011 7
b0000000000011011 (
b0000000000011011 $
b0000000000011011 B
#280000
0!
0%
02
0?
b0000000000011011 ;
#285000
1!
1%
12
1?
b0000000000011100 1
b0000000000011100 7
b0000000000011100 (
b0000000000011100 $
b0000000000011100 B
#290000
0!
0%
02
0?
b0000000000011100 ;
#295000
1!
1%
12
1?
b0000000000011101 1
b0000000000011101 7
b0000000000011101 (
b0000000000011101 $
b0000000000011101 B
#300000
0!
0%
02
0?
b0000000000011101 ;
#305000
1!
1%
12
1?
0#
0'
0@
04
b0000000000011110 1
b0000000000011110 7
b0000000000011110 (
b0000000000011110 $
b0000000000011110 B
#310000
0!
0%
02
0?
b0000000000011110 ;
#315000
1!
1%
12
1?
b00000000000000000000000000000100 >
0:
0/
0G
b0000000000011110 <
b000000111000 0
b000000111000 )
b000000111000 A
18
1*
1D
#320000
0!
0%
02
0?
#325000
1!
1%
12
1?
#330000
0!
0%
02
0?
#335000
1!
1%
12
1?
b000000101000 0
b000000101000 )
b000000101000 A
b1000000100011010 1
b000000010000 C
b000000010000 ,
1I
19
1+
b1000000100011010 7
b1000000100011010 (
b1000000100011010 $
b1000000100011010 B
b011111010101 C
b011111010101 ,
#340000
0!
0%
02
0?
b1000000100011010 ;
#345000
1!
1%
12
1?
b0000000000011110 E
b0000000000011110 -
b0000000000011110 5
b000000111000 F
b000000111000 .
b000000111000 6
#350000
0!
0%
02
0?
#355000
1!
1%
12
1?
b000000111000 0
b000000111000 )
b000000111000 A
b0000000000011110 1
08
0*
0D
b011111000101 C
b011111000101 ,
09
0+
b0000000000011110 7
b0000000000011110 (
b0000000000011110 $
b0000000000011110 B
b000000000000 C
b000000000000 ,
0I
#360000
0!
0%
02
0?
b0000000000011110 ;
#365000
1!
1%
12
1?
1#
1'
1@
14
b0000000000000000 E
b0000000000000000 -
b0000000000000000 5
#370000
0!
0%
02
0?
#375000
1!
1%
12
1?
1:
1/
1G
b0000000000011111 1
b0000000000011111 7
b0000000000011111 (
b0000000000011111 $
b0000000000011111 B
#380000
0!
0%
02
0?
b0000000000011111 ;
#385000
1!
1%
12
1?
b0000000000100000 1
b0000000000100000 7
b0000000000100000 (
b0000000000100000 $
b0000000000100000 B
#390000
0!
0%
02
0?
b0000000000100000 ;
#395000
1!
1%
12
1?
b0000000000100001 1
b0000000000100001 7
b0000000000100001 (
b0000000000100001 $
b0000000000100001 B
#400000
0!
0%
02
0?
b0000000000100001 ;
#405000
1!
1%
12
1?
b0000000000100010 1
b0000000000100010 7
b0000000000100010 (
b0000000000100010 $
b0000000000100010 B
#410000
0!
0%
02
0?
b0000000000100010 ;
