versiones_finales/semana14/Contador_Hamming/TSMC_16_v3/FLOW/common/rtl/sverilog/waveform.vcd
$date
	Thu May 29 21:06:28 2025
$end

$version
	Synopsys VCS version R-2020.12-SP2_Full64
$end

$timescale
	1ps
$end

$comment Csum: 1 6595e5a54ac14293 $end


$scope module tb_top $end
$var reg 1 ! clk $end
$var reg 1 " rst $end
$var reg 1 # enable $end
$var wire 16 $ counter [15:0] $end

$scope module dut $end
$var reg 1 % clk $end
$var reg 1 & rst $end
$var reg 1 ' enable $end
$var reg 16 ( counter [15:0] $end
$var reg 12 ) parity_stored [11:0] $end
$var reg 1 * busy $end
$var wire 1 + error_detected $end
$var reg 12 , syndrome [11:0] $end
$var reg 16 - corrected_counter [15:0] $end
$var reg 12 . corrected_parity [11:0] $end
$var reg 1 / enable_last $end

$scope module counter_and_parity $end
$var reg 12 0 parity_stored [11:0] $end
$var reg 16 1 count_reg [15:0] $end
$var wire 1 2 clk $end
$var wire 1 3 rst $end
$var wire 1 4 enable $end
$var wire 16 5 corrected_counter [15:0] $end
$var wire 12 6 corrected_parity [11:0] $end
$var reg 16 7 counter [15:0] $end
$var reg 1 8 busy $end
$var reg 1 9 error_detected $end
$var reg 1 : enable_last $end
$var reg 16 ; counter_stored [15:0] $end
$var integer 32 < i $end
$upscope $end


$scope module syndrome_inst $end
$var wire 1 = clk $end
$var wire 1 > enable $end
$var wire 12 ? parity_stored [11:0] $end
$var wire 16 @ counter_reg [15:0] $end
$var reg 12 A syndrome [11:0] $end
$var wire 1 B busy $end
$var reg 16 C corrected_counter [15:0] $end
$var reg 1 D error_detected $end
$var reg 12 E corrected_parity [11:0] $end
$var wire 1 F enable_last $end
$var wire 1 G rst $end
$var reg 1 H error_detected_parity $end
$var integer 32 I i $end

$scope begin unnamed$$_0 $end
$upscope $end


$scope begin unnamed$$_1 $end
$upscope $end

$upscope $end

$upscope $end

$upscope $end

$enddefinitions $end

#0
$dumpvars
0*
0!
08
04
0:
09
13
0'
1&
0#
0/
0+
0H
1"
0B
0>
0F
0D
1G
b000000000000 0
b0000000000000000 1
b0000000000000000 -
b000000000000 .
b0000000000000000 $
b0000000000000000 5
b000000000000 6
b0000000000000000 7
b0000000000000000 @
b0000000000000000 ;
b0000000000000000 (
bxxxxxxxxxxxxxxxxxxxxxxxxxxxxxxxx <
b000000000000 )
b000000000000 ,
b0000000000000000 C
b000000000000 E
b00000000000000000000000000000100 I
b000000000000 ?
b000000000000 A
02
0=
0%
$end
#5000
1!
1%
12
1=
0"
0&
0G
03
1#
1'
1>
14
#10000
0!
0%
02
0=
#15000
1!
1%
12
1=
1:
1/
1F
b0000000000000001 1
b0000000000000001 7
b0000000000000001 (
b0000000000000001 $
b0000000000000001 @
#20000
0!
0%
02
0=
#25000
1!
1%
12
1=
b0000000000000010 1
b0000000000000010 7
b0000000000000010 (
b0000000000000010 $
b0000000000000010 @
#30000
0!
0%
02
0=
#35000
1!
1%
12
1=
b0000000000000011 1
b0000000000000011 7
b0000000000000011 (
b0000000000000011 $
b0000000000000011 @
#40000
0!
0%
02
0=
#45000
1!
1%
12
1=
b0000000000000100 1
b0000000000000100 7
b0000000000000100 (
b0000000000000100 $
b0000000000000100 @
#50000
0!
0%
02
0=
#55000
1!
1%
12
1=
b0000000000000101 1
b0000000000000101 7
b0000000000000101 (
b0000000000000101 $
b0000000000000101 @
#60000
0!
0%
02
0=
#65000
1!
1%
12
1=
b0000000000000110 1
b0000000000000110 7
b0000000000000110 (
b0000000000000110 $
b0000000000000110 @
#70000
0!
0%
02
0=
#75000
1!
1%
12
1=
b0000000000000111 1
b0000000000000111 7
b0000000000000111 (
b0000000000000111 $
b0000000000000111 @
#80000
0!
0%
02
0=
#85000
1!
1%
12
1=
b0000000000001000 1
b0000000000001000 7
b0000000000001000 (
b0000000000001000 $
b0000000000001000 @
#90000
0!
0%
02
0=
#95000
1!
1%
12
1=
b0000000000001001 1
b0000000000001001 7
b0000000000001001 (
b0000000000001001 $
b0000000000001001 @
#100000
0!
0%
02
0=
#105000
1!
1%
12
1=
b0000000000001010 1
b0000000000001010 7
b0000000000001010 (
b0000000000001010 $
b0000000000001010 @
#110000
0!
0%
02
0=
#115000
1!
1%
12
1=
b0000000000001011 1
b0000000000001011 7
b0000000000001011 (
b0000000000001011 $
b0000000000001011 @
#120000
0!
0%
02
0=
#125000
1!
1%
12
1=
b0000000000001100 1
b0000000000001100 7
b0000000000001100 (
b0000000000001100 $
b0000000000001100 @
#130000
0!
0%
02
0=
#135000
1!
1%
12
1=
b0000000000001101 1
b0000000000001101 7
b0000000000001101 (
b0000000000001101 $
b0000000000001101 @
#140000
0!
0%
02
0=
#145000
1!
1%
12
1=
b0000000000001110 1
b0000000000001110 7
b0000000000001110 (
b0000000000001110 $
b0000000000001110 @
#150000
0!
0%
02
0=
#155000
1!
1%
12
1=
b0000000000001111 1
b0000000000001111 7
b0000000000001111 (
b0000000000001111 $
b0000000000001111 @
#160000
0!
0%
02
0=
#165000
1!
1%
12
1=
b0000000000010000 1
b0000000000010000 7
b0000000000010000 (
b0000000000010000 $
b0000000000010000 @
#170000
0!
0%
02
0=
#175000
1!
1%
12
1=
b0000000000010001 1
b0000000000010001 7
b0000000000010001 (
b0000000000010001 $
b0000000000010001 @
#180000
0!
0%
02
0=
#185000
1!
1%
12
1=
b0000000000010010 1
b0000000000010010 7
b0000000000010010 (
b0000000000010010 $
b0000000000010010 @
#190000
0!
0%
02
0=
#195000
1!
1%
12
1=
b0000000000010011 1
b0000000000010011 7
b0000000000010011 (
b0000000000010011 $
b0000000000010011 @
#200000
0!
0%
02
0=
#205000
1!
1%
12
1=
b0000000000010100 1
b0000000000010100 7
b0000000000010100 (
b0000000000010100 $
b0000000000010100 @
#210000
0!
0%
02
0=
#215000
1!
1%
12
1=
b0000000000010101 1
b0000000000010101 7
b0000000000010101 (
b0000000000010101 $
b0000000000010101 @
#220000
0!
0%
02
0=
#225000
1!
1%
12
1=
b0000000000010110 1
b0000000000010110 7
b0000000000010110 (
b0000000000010110 $
b0000000000010110 @
#230000
0!
0%
02
0=
#235000
1!
1%
12
1=
b0000000000010111 1
b0000000000010111 7
b0000000000010111 (
b0000000000010111 $
b0000000000010111 @
#240000
0!
0%
02
0=
#245000
1!
1%
12
1=
b0000000000011000 1
b0000000000011000 7
b0000000000011000 (
b0000000000011000 $
b0000000000011000 @
#250000
0!
0%
02
0=
#255000
1!
1%
12
1=
b0000000000011001 1
b0000000000011001 7
b0000000000011001 (
b0000000000011001 $
b0000000000011001 @
#260000
0!
0%
02
0=
#265000
1!
1%
12
1=
b0000000000011010 1
b0000000000011010 7
b0000000000011010 (
b0000000000011010 $
b0000000000011010 @
#270000
0!
0%
02
0=
#275000
1!
1%
12
1=
b0000000000011011 1
b0000000000011011 7
b0000000000011011 (
b0000000000011011 $
b0000000000011011 @
#280000
0!
0%
02
0=
#285000
1!
1%
12
1=
b0000000000011100 1
b0000000000011100 7
b0000000000011100 (
b0000000000011100 $
b0000000000011100 @
#290000
0!
0%
02
0=
#295000
1!
1%
12
1=
b0000000000011101 1
b0000000000011101 7
b0000000000011101 (
b0000000000011101 $
b0000000000011101 @
#300000
0!
0%
02
0=
#305000
1!
1%
12
1=
0#
0'
0>
04
b0000000000011110 1
b0000000000011110 7
b0000000000011110 (
b0000000000011110 $
b0000000000011110 @
#310000
0!
0%
02
0=
#315000
1!
1%
12
1=
b00000000000000000000000000000100 <
0:
0/
0F
b0000000000011110 ;
b000000111000 0
b000000111000 )
b000000111000 ?
18
1*
1B
#320000
0!
0%
02
0=
#325000
1!
1%
12
1=
#330000
0!
0%
02
0=
#335000
1!
1%
12
1=
b000000101000 0
b000000101000 )
b000000101000 ?
b1000000100011010 1
b000000010000 A
b000000010000 ,
1H
19
1+
1D
b1000000100011010 7
b1000000100011010 (
b1000000100011010 $
b1000000100011010 @
b011111010101 A
b011111010101 ,
#340000
0!
0%
02
0=
#345000
1!
1%
12
1=
b0000000000011110 C
b0000000000011110 -
b0000000000011110 5
b000000111000 E
b000000111000 .
b000000111000 6
#350000
0!
0%
02
0=
#355000
1!
1%
12
1=
b000000111000 0
b000000111000 )
b000000111000 ?
b0000000000011110 1
08
0*
0B
b011111000101 A
b011111000101 ,
09
0+
0D
b0000000000011110 7
b0000000000011110 (
b0000000000011110 $
b0000000000011110 @
b000000000000 A
b000000000000 ,
0H
#360000
0!
0%
02
0=
#365000
1!
1%
12
1=
1#
1'
1>
14
b0000000000000000 C
b0000000000000000 -
b0000000000000000 5
#370000
0!
0%
02
0=
#375000
1!
1%
12
1=
1:
1/
1F
b0000000000011111 1
b0000000000011111 7
b0000000000011111 (
b0000000000011111 $
b0000000000011111 @
#380000
0!
0%
02
0=
#385000
1!
1%
12
1=
b0000000000100000 1
b0000000000100000 7
b0000000000100000 (
b0000000000100000 $
b0000000000100000 @
#390000
0!
0%
02
0=
#395000
1!
1%
12
1=
b0000000000100001 1
b0000000000100001 7
b0000000000100001 (
b0000000000100001 $
b0000000000100001 @
#400000
0!
0%
02
0=
#405000
1!
1%
12
1=
b0000000000100010 1
b0000000000100010 7
b0000000000100010 (
b0000000000100010 $
b0000000000100010 @
